%!PS-Adobe-3.0 EPSF-3.0
%%Creator: cairo 1.12.14 (http://cairographics.org)
%%CreationDate: Tue May 21 09:40:42 2013
%%Pages: 1
%%DocumentData: Clean7Bit
%%LanguageLevel: 2
%%BoundingBox: 0 -1 261 151
%%EndComments
%%BeginProlog
save
50 dict begin
/q { gsave } bind def
/Q { grestore } bind def
/cm { 6 array astore concat } bind def
/w { setlinewidth } bind def
/J { setlinecap } bind def
/j { setlinejoin } bind def
/M { setmiterlimit } bind def
/d { setdash } bind def
/m { moveto } bind def
/l { lineto } bind def
/c { curveto } bind def
/h { closepath } bind def
/re { exch dup neg 3 1 roll 5 3 roll moveto 0 rlineto
      0 exch rlineto 0 rlineto closepath } bind def
/S { stroke } bind def
/f { fill } bind def
/f* { eofill } bind def
/n { newpath } bind def
/W { clip } bind def
/W* { eoclip } bind def
/BT { } bind def
/ET { } bind def
/pdfmark where { pop globaldict /?pdfmark /exec load put }
    { globaldict begin /?pdfmark /pop load def /pdfmark
    /cleartomark load def end } ifelse
/BDC { mark 3 1 roll /BDC pdfmark } bind def
/EMC { mark /EMC pdfmark } bind def
/cairo_store_point { /cairo_point_y exch def /cairo_point_x exch def } def
/Tj { show currentpoint cairo_store_point } bind def
/TJ {
  {
    dup
    type /stringtype eq
    { show } { -0.001 mul 0 cairo_font_matrix dtransform rmoveto } ifelse
  } forall
  currentpoint cairo_store_point
} bind def
/cairo_selectfont { cairo_font_matrix aload pop pop pop 0 0 6 array astore
    cairo_font exch selectfont cairo_point_x cairo_point_y moveto } bind def
/Tf { pop /cairo_font exch def /cairo_font_matrix where
      { pop cairo_selectfont } if } bind def
/Td { matrix translate cairo_font_matrix matrix concatmatrix dup
      /cairo_font_matrix exch def dup 4 get exch 5 get cairo_store_point
      /cairo_font where { pop cairo_selectfont } if } bind def
/Tm { 2 copy 8 2 roll 6 array astore /cairo_font_matrix exch def
      cairo_store_point /cairo_font where { pop cairo_selectfont } if } bind def
/g { setgray } bind def
/rg { setrgbcolor } bind def
/d1 { setcachedevice } bind def
%%EndProlog
%%Page: 1 1
%%BeginPageSetup
%%PageBoundingBox: 0 -1 261 151
%%EndPageSetup
q 0 -1 261 152 rectclip q
0 g
4 w
0 J
0 j
[] 0.0 d
4 M q 1 0 0 -1 0 150.657211 cm
24.391 21.391 m 47.492 21.391 l S Q
q 1 0 0 -1 0 150.657211 cm
24.391 8.16 m 41.305 8.16 l S Q
q 1 0 0 -1 0 150.657211 cm
24.391 14.777 m 58.316 14.777 l S Q
q 1 0 0 -1 0 150.657211 cm
24.391 28.008 m 33.57 28.008 l S Q
0.8 w
q 1 0 0 -1 0 150.657211 cm
70.383 35.398 m 70.383 54.727 54.715 70.395 35.387 70.395 c 16.062 70.395
 0.395 54.727 0.395 35.398 c 0.395 16.07 16.062 0.402 35.387 0.402 c 54.715
 0.402 70.383 16.07 70.383 35.398 c h
S Q
0.8 w
q 1 0 0 -1 0 150.657211 cm
22.531 4.059 m 22.531 32.109 l S Q
16.48 135.853 m 16.48 135.853 16.48 135.938 16.371 135.938 c 16.195 135.938
 15.605 135.876 15.395 135.853 c 15.332 135.853 15.246 135.841 15.246 135.688
 c 15.246 135.603 15.332 135.603 15.445 135.603 c 15.832 135.603 15.844 
135.528 15.844 135.466 c 15.82 135.302 l 14.809 131.313 l 14.781 131.228
 14.77 131.177 14.77 131.052 c 14.77 130.591 15.121 130.313 15.496 130.313
 c 15.758 130.313 15.957 130.478 16.094 130.767 c 16.23 131.063 16.332 131.528
 16.332 131.54 c 16.332 131.626 16.258 131.626 16.23 131.626 c 16.156 131.626
 16.145 131.591 16.133 131.478 c 15.996 130.966 15.844 130.489 15.52 130.489
 c 15.281 130.489 15.281 130.739 15.281 130.853 c 15.281 131.052 15.293 
131.091 15.332 131.239 c h
f
18.66 132.759 m 18.66 132.907 18.66 132.907 18.5 132.907 c 18.137 132.556
 17.637 132.556 17.41 132.556 c 17.41 132.356 l 17.535 132.356 17.91 132.356
 18.211 132.509 c 18.211 129.669 l 18.211 129.481 18.211 129.407 17.66 129.407
 c 17.449 129.407 l 17.449 129.208 l 17.547 129.208 18.234 129.231 18.438
 129.231 c 18.609 129.231 19.312 129.208 19.438 129.208 c 19.438 129.407
 l 19.223 129.407 l 18.66 129.407 18.66 129.481 18.66 129.669 c h
f
Q q
10.516 119.892 50 -28.836 re W n
q
10 120.657 51 -30 re W n
[ 1 0 0 1 0 -0.342789 ] concat
  q
0 g
0.976744 w
0 J
0 j
[] 0.0 d
4 M q 1 0 0 -1 0 151 cm
77.824 57.012 m 61.242 57.012 62.34 56.875 60.332 56.734 c 52.535 56.203
 48.996 51.668 45.898 47.418 c 41.973 42.031 39.047 36.707 35.516 36.707
 c 31.98 36.707 29.059 42.031 25.129 47.418 c 22.031 51.668 18.496 56.203
 10.699 56.734 c 8.688 56.875 9.785 57.012 -6.797 57.012 c S Q
  Q
Q
Q q
0 g
34.461 93.235 m 34.512 93.435 34.699 94.173 35.25 94.173 c 35.285 94.173
 35.488 94.173 35.648 94.071 c 35.426 94.024 35.273 93.837 35.273 93.634
 c 35.273 93.509 35.363 93.36 35.574 93.36 c 35.75 93.36 36 93.497 36 93.821
 c 36 94.235 35.535 94.349 35.262 94.349 c 34.801 94.349 34.523 93.923 34.426
 93.747 c 34.223 94.274 33.801 94.349 33.562 94.349 c 32.738 94.349 32.273
 93.321 32.273 93.122 c 32.273 93.036 32.363 93.036 32.375 93.036 c 32.438
 93.036 32.461 93.06 32.473 93.122 c 32.75 93.974 33.273 94.173 33.551 94.173
 c 33.699 94.173 33.973 94.099 33.973 93.634 c 33.973 93.384 33.836 92.86
 33.551 91.735 c 33.426 91.247 33.137 90.911 32.785 90.911 c 32.738 90.911
 32.562 90.911 32.387 91.009 c 32.586 91.06 32.762 91.224 32.762 91.446 
c 32.762 91.661 32.586 91.724 32.473 91.724 c 32.223 91.724 32.035 91.524
 32.035 91.259 c 32.035 90.899 32.426 90.735 32.773 90.735 c 33.312 90.735
 33.598 91.298 33.613 91.337 c 33.711 91.048 34 90.735 34.473 90.735 c 35.301
 90.735 35.75 91.759 35.75 91.962 c 35.75 92.048 35.688 92.048 35.66 92.048
 c 35.586 92.048 35.574 92.009 35.551 91.962 c 35.285 91.099 34.75 90.911
 34.5 90.911 c 34.188 90.911 34.062 91.161 34.062 91.435 c 34.062 91.61 
34.098 91.786 34.188 92.134 c h
f
38.215 93.177 m 38.215 93.329 38.215 93.329 38.055 93.329 c 37.691 92.978
 37.191 92.978 36.965 92.978 c 36.965 92.778 l 37.09 92.778 37.465 92.778
 37.766 92.927 c 37.766 90.091 l 37.766 89.903 37.766 89.829 37.215 89.829
 c 37.004 89.829 l 37.004 89.626 l 37.105 89.626 37.793 89.653 37.992 89.653
 c 38.168 89.653 38.867 89.626 38.992 89.626 c 38.992 89.829 l 38.777 89.829
 l 38.215 89.829 38.215 89.903 38.215 90.091 c h
f
4 w
0 J
0 j
[] 0.0 d
4 M q 1 0 0 -1 0 150.657211 cm
119.078 21.391 m 142.176 21.391 l S Q
q 1 0 0 -1 0 150.657211 cm
119.078 8.16 m 135.988 8.16 l S Q
q 1 0 0 -1 0 150.657211 cm
119.078 14.777 m 153.004 14.777 l S Q
q 1 0 0 -1 0 150.657211 cm
119.078 28.008 m 128.258 28.008 l S Q
0.8 w
q 1 0 0 -1 0 150.657211 cm
165.07 35.398 m 165.07 54.727 149.402 70.395 130.074 70.395 c 110.746 70.395
 95.078 54.727 95.078 35.398 c 95.078 16.07 110.746 0.402 130.074 0.402 
c 149.402 0.402 165.07 16.07 165.07 35.398 c h
S Q
0.8 w
q 1 0 0 -1 0 150.657211 cm
117.219 4.059 m 117.219 32.109 l S Q
Q q
105.199 119.892 50 -28.836 re W n
q
105 120.657 51 -30 re W n
[ 1 0 0 1 0 -0.342789 ] concat
  q
0 g
0.976744 w
0 J
0 j
[] 0.0 d
4 M q 1 0 0 -1 0 151 cm
172.512 57.012 m 155.93 57.012 157.027 56.875 155.016 56.734 c 147.219 
56.203 143.68 51.668 140.582 47.418 c 136.656 42.031 133.73 36.707 130.199
 36.707 c 126.668 36.707 123.742 42.031 119.816 47.418 c 116.719 51.668 
113.18 56.203 105.383 56.734 c 103.375 56.875 104.473 57.012 87.887 57.012
 c S Q
  Q
Q
Q q
0 g
4 w
0 J
0 j
[] 0.0 d
4 M q 1 0 0 -1 0 150.657211 cm
213.766 21.391 m 236.863 21.391 l S Q
q 1 0 0 -1 0 150.657211 cm
213.766 8.16 m 230.676 8.16 l S Q
q 1 0 0 -1 0 150.657211 cm
213.766 14.777 m 247.688 14.777 l S Q
q 1 0 0 -1 0 150.657211 cm
213.766 28.008 m 222.941 28.008 l S Q
0.8 w
q 1 0 0 -1 0 150.657211 cm
259.754 35.398 m 259.754 54.727 244.086 70.395 224.762 70.395 c 205.434
 70.395 189.766 54.727 189.766 35.398 c 189.766 16.07 205.434 0.402 224.762
 0.402 c 244.086 0.402 259.754 16.07 259.754 35.398 c h
S Q
0.8 w
q 1 0 0 -1 0 150.657211 cm
211.902 4.059 m 211.902 32.109 l S Q
Q q
199.887 119.892 50 -28.836 re W n
q
199 120.657 51 -30 re W n
[ 1 0 0 1 0 -0.342789 ] concat
  q
0 g
0.976744 w
0 J
0 j
[] 0.0 d
4 M q 1 0 0 -1 0 151 cm
267.199 57.012 m 250.613 57.012 251.711 56.875 249.703 56.734 c 241.906
 56.203 238.367 51.668 235.27 47.418 c 231.344 42.031 228.418 36.707 224.887
 36.707 c 221.352 36.707 218.43 42.031 214.5 47.418 c 211.402 51.668 207.867
 56.203 200.07 56.734 c 198.059 56.875 199.156 57.012 182.574 57.012 c S Q
  Q
Q
Q q
0 g
4 w
0 J
0 j
[] 0.0 d
4 M q 1 0 0 -1 0 150.657211 cm
119.074 101.254 m 142.172 101.254 l S Q
q 1 0 0 -1 0 150.657211 cm
119.074 88.023 m 135.984 88.023 l S Q
q 1 0 0 -1 0 150.657211 cm
119.074 94.637 m 152.996 94.637 l S Q
q 1 0 0 -1 0 150.657211 cm
119.074 107.871 m 128.254 107.871 l S Q
0.8 w
q 1 0 0 -1 0 150.657211 cm
165.062 115.258 m 165.062 134.586 149.398 150.254 130.07 150.254 c 110.742
 150.254 95.074 134.586 95.074 115.258 c 95.074 95.934 110.742 80.266 130.07
 80.266 c 149.398 80.266 165.062 95.934 165.062 115.258 c h
S Q
0.8 w
q 1 0 0 -1 0 150.657211 cm
117.211 83.918 m 117.211 111.973 l S Q
Q q
105.195 40.032 50 -28.84 re W n
q
105 40.657 51 -30 re W n
[ 1 0 0 1 0 -0.342789 ] concat
  q
0 g
0.976744 w
0 J
0 j
[] 0.0 d
4 M q 1 0 0 -1 0 151 cm
172.508 136.871 m 155.926 136.871 157.023 136.734 155.012 136.598 c 147.215
 136.062 143.676 131.527 140.578 127.277 c 136.652 121.891 133.727 116.57
 130.195 116.57 c 126.664 116.57 123.738 121.891 119.812 127.277 c 116.715
 131.527 113.176 136.062 105.379 136.598 c 103.367 136.734 104.465 136.871
 87.883 136.871 c S Q
  Q
Q
Q q
0 g
0.8 w
0 J
0 j
[] 0.0 d
4 M q 1 0 0 -1 0 150.657211 cm
70.309 35.398 m 94.957 35.398 l S Q
q 1 0 0 -1 0 150.657211 cm
165.062 35.398 m 189.707 35.398 l S Q
q 1 0 0 -1 0 150.657211 cm
225.871 70.402 m 164.859 115.051 l S Q
q 1 0 0 -1 0 150.657211 cm
95.102 115.254 m 35.102 70.398 l S Q
111.168 135.853 m 111.168 135.853 111.168 135.938 111.055 135.938 c 110.879
 135.938 110.293 135.876 110.082 135.853 c 110.02 135.853 109.93 135.841
 109.93 135.688 c 109.93 135.603 110.02 135.603 110.129 135.603 c 110.52
 135.603 110.531 135.528 110.531 135.466 c 110.504 135.302 l 109.492 131.313
 l 109.469 131.228 109.457 131.177 109.457 131.052 c 109.457 130.591 109.805
 130.313 110.18 130.313 c 110.441 130.313 110.645 130.478 110.781 130.767
 c 110.918 131.063 111.02 131.528 111.02 131.54 c 111.02 131.626 110.941
 131.626 110.918 131.626 c 110.844 131.626 110.832 131.591 110.816 131.478
 c 110.68 130.966 110.531 130.489 110.207 130.489 c 109.969 130.489 109.969
 130.739 109.969 130.853 c 109.969 131.052 109.98 131.091 110.02 131.239
 c h
f
114.297 130.22 m 114.109 130.22 l 114.098 130.095 114.035 129.77 113.957
 129.72 c 113.922 129.681 113.496 129.681 113.41 129.681 c 112.383 129.681
 l 112.973 130.196 113.172 130.356 113.496 130.618 c 113.91 130.946 114.297
 131.294 114.297 131.821 c 114.297 132.493 113.707 132.907 112.996 132.907
 c 112.309 132.907 111.832 132.419 111.832 131.907 c 111.832 131.634 112.07
 131.595 112.133 131.595 c 112.258 131.595 112.422 131.696 112.422 131.895
 c 112.422 131.993 112.383 132.196 112.098 132.196 c 112.27 132.583 112.645
 132.708 112.91 132.708 c 113.473 132.708 113.758 132.27 113.758 131.821
 c 113.758 131.333 113.41 130.958 113.234 130.759 c 111.895 129.419 l 111.832
 129.368 111.832 129.356 111.832 129.208 c 114.133 129.208 l h
f
129.148 93.235 m 129.195 93.435 129.383 94.173 129.934 94.173 c 129.973
 94.173 130.172 94.173 130.336 94.071 c 130.109 94.024 129.961 93.837 129.961
 93.634 c 129.961 93.509 130.047 93.36 130.258 93.36 c 130.434 93.36 130.684
 93.497 130.684 93.821 c 130.684 94.235 130.223 94.349 129.945 94.349 c 
129.484 94.349 129.211 93.923 129.109 93.747 c 128.91 94.274 128.484 94.349
 128.246 94.349 c 127.422 94.349 126.961 93.321 126.961 93.122 c 126.961
 93.036 127.047 93.036 127.059 93.036 c 127.121 93.036 127.148 93.06 127.16
 93.122 c 127.434 93.974 127.961 94.173 128.234 94.173 c 128.383 94.173 
128.66 94.099 128.66 93.634 c 128.66 93.384 128.523 92.86 128.234 91.735
 c 128.109 91.247 127.82 90.911 127.473 90.911 c 127.422 90.911 127.246 
90.911 127.07 91.009 c 127.273 91.06 127.445 91.224 127.445 91.446 c 127.445
 91.661 127.273 91.724 127.16 91.724 c 126.91 91.724 126.723 91.524 126.723
 91.259 c 126.723 90.899 127.109 90.735 127.461 90.735 c 127.996 90.735 
128.285 91.298 128.297 91.337 c 128.398 91.048 128.684 90.735 129.16 90.735
 c 129.984 90.735 130.434 91.759 130.434 91.962 c 130.434 92.048 130.371
 92.048 130.348 92.048 c 130.273 92.048 130.258 92.009 130.234 91.962 c 
129.973 91.099 129.434 90.911 129.184 90.911 c 128.871 90.911 128.746 91.161
 128.746 91.435 c 128.746 91.61 128.785 91.786 128.871 92.134 c h
f
133.852 90.642 m 133.664 90.642 l 133.652 90.517 133.59 90.188 133.516 
90.142 c 133.477 90.103 133.051 90.103 132.965 90.103 c 131.941 90.103 l
 132.527 90.614 132.727 90.778 133.051 91.04 c 133.465 91.364 133.852 91.716
 133.852 92.239 c 133.852 92.915 133.266 93.329 132.551 93.329 c 131.863
 93.329 131.391 92.841 131.391 92.329 c 131.391 92.052 131.629 92.017 131.691
 92.017 c 131.816 92.017 131.977 92.114 131.977 92.313 c 131.977 92.415 
131.941 92.614 131.652 92.614 c 131.828 93.001 132.203 93.126 132.465 93.126
 c 133.027 93.126 133.316 92.688 133.316 92.239 c 133.316 91.751 132.965
 91.376 132.789 91.177 c 131.453 89.841 l 131.391 89.79 131.391 89.778 131.391
 89.626 c 133.691 89.626 l h
f
205.855 135.853 m 205.855 135.853 205.855 135.938 205.742 135.938 c 205.566
 135.938 204.98 135.876 204.766 135.853 c 204.703 135.853 204.617 135.841
 204.617 135.688 c 204.617 135.603 204.703 135.603 204.816 135.603 c 205.203
 135.603 205.215 135.528 205.215 135.466 c 205.191 135.302 l 204.18 131.313
 l 204.152 131.228 204.141 131.177 204.141 131.052 c 204.141 130.591 204.492
 130.313 204.867 130.313 c 205.129 130.313 205.328 130.478 205.465 130.767
 c 205.605 131.063 205.703 131.528 205.703 131.54 c 205.703 131.626 205.629
 131.626 205.605 131.626 c 205.527 131.626 205.516 131.591 205.504 131.478
 c 205.367 130.966 205.215 130.489 204.891 130.489 c 204.652 130.489 204.652
 130.739 204.652 130.853 c 204.652 131.052 204.668 131.091 204.703 131.239
 c h
f
207.695 131.071 m 208.133 131.071 208.445 130.77 208.445 130.169 c 208.445
 129.481 208.031 129.27 207.719 129.27 c 207.496 129.27 206.996 129.333 
206.77 129.669 c 207.031 129.669 207.094 129.856 207.094 129.981 c 207.094
 130.157 206.957 130.282 206.781 130.282 c 206.633 130.282 206.469 130.181
 206.469 129.958 c 206.469 129.431 207.043 129.095 207.719 129.095 c 208.496
 129.095 209.031 129.618 209.031 130.169 c 209.031 130.606 208.684 131.044
 208.07 131.169 c 208.645 131.384 208.855 131.794 208.855 132.145 c 208.855
 132.583 208.355 132.907 207.73 132.907 c 207.121 132.907 206.645 132.606
 206.645 132.157 c 206.645 131.97 206.77 131.868 206.934 131.868 c 207.105
 131.868 207.219 131.993 207.219 132.145 c 207.219 132.306 207.105 132.431
 206.934 132.446 c 207.133 132.681 207.508 132.743 207.719 132.743 c 207.969
 132.743 208.32 132.618 208.32 132.145 c 208.32 131.907 208.246 131.645 
208.094 131.481 c 207.918 131.27 207.758 131.259 207.48 131.231 c 207.344
 131.22 207.332 131.22 207.309 131.22 c 207.293 131.22 207.246 131.208 207.246
 131.145 c 207.246 131.071 207.293 131.071 207.395 131.071 c h
f
223.832 93.235 m 223.883 93.435 224.07 94.173 224.621 94.173 c 224.656 
94.173 224.859 94.173 225.02 94.071 c 224.797 94.024 224.645 93.837 224.645
 93.634 c 224.645 93.509 224.734 93.36 224.945 93.36 c 225.121 93.36 225.371
 93.497 225.371 93.821 c 225.371 94.235 224.906 94.349 224.633 94.349 c 
224.172 94.349 223.895 93.923 223.797 93.747 c 223.594 94.274 223.172 94.349
 222.934 94.349 c 222.109 94.349 221.645 93.321 221.645 93.122 c 221.645
 93.036 221.734 93.036 221.746 93.036 c 221.809 93.036 221.832 93.06 221.844
 93.122 c 222.121 93.974 222.645 94.173 222.922 94.173 c 223.07 94.173 223.344
 94.099 223.344 93.634 c 223.344 93.384 223.207 92.86 222.922 91.735 c 222.797
 91.247 222.508 90.911 222.156 90.911 c 222.109 90.911 221.934 90.911 221.758
 91.009 c 221.957 91.06 222.133 91.224 222.133 91.446 c 222.133 91.661 221.957
 91.724 221.844 91.724 c 221.594 91.724 221.406 91.524 221.406 91.259 c 
221.406 90.899 221.797 90.735 222.145 90.735 c 222.684 90.735 222.969 91.298
 222.984 91.337 c 223.082 91.048 223.371 90.735 223.844 90.735 c 224.672
 90.735 225.121 91.759 225.121 91.962 c 225.121 92.048 225.059 92.048 225.031
 92.048 c 224.957 92.048 224.945 92.009 224.922 91.962 c 224.656 91.099 
224.121 90.911 223.871 90.911 c 223.559 90.911 223.434 91.161 223.434 91.435
 c 223.434 91.61 223.469 91.786 223.559 92.134 c h
f
227.25 91.489 m 227.688 91.489 228 91.188 228 90.591 c 228 89.903 227.59
 89.688 227.277 89.688 c 227.051 89.688 226.551 89.751 226.324 90.091 c 
226.59 90.091 226.652 90.278 226.652 90.403 c 226.652 90.579 226.512 90.704
 226.34 90.704 c 226.188 90.704 226.027 90.603 226.027 90.376 c 226.027 
89.853 226.602 89.517 227.277 89.517 c 228.051 89.517 228.59 90.04 228.59
 90.591 c 228.59 91.028 228.238 91.466 227.625 91.591 c 228.199 91.802 228.414
 92.216 228.414 92.563 c 228.414 93.001 227.914 93.329 227.289 93.329 c 
226.676 93.329 226.199 93.028 226.199 92.579 c 226.199 92.392 226.324 92.29
 226.488 92.29 c 226.664 92.29 226.777 92.415 226.777 92.563 c 226.777 92.728
 226.664 92.853 226.488 92.864 c 226.688 93.103 227.062 93.165 227.277 93.165
 c 227.527 93.165 227.875 93.04 227.875 92.563 c 227.875 92.329 227.801 
92.063 227.652 91.903 c 227.477 91.688 227.312 91.677 227.039 91.653 c 226.902
 91.642 226.887 91.642 226.863 91.642 c 226.852 91.642 226.801 91.626 226.801
 91.563 c 226.801 91.489 226.852 91.489 226.949 91.489 c h
f
111.164 55.989 m 111.164 55.989 111.164 56.079 111.051 56.079 c 110.875
 56.079 110.289 56.017 110.078 55.989 c 110.016 55.989 109.926 55.978 109.926
 55.829 c 109.926 55.739 110.016 55.739 110.125 55.739 c 110.516 55.739 
110.527 55.665 110.527 55.603 c 110.5 55.442 l 109.488 51.454 l 109.465 
51.364 109.453 51.317 109.453 51.192 c 109.453 50.728 109.801 50.454 110.176
 50.454 c 110.438 50.454 110.641 50.614 110.777 50.903 c 110.914 51.204 
111.016 51.665 111.016 51.677 c 111.016 51.767 110.938 51.767 110.914 51.767
 c 110.84 51.767 110.828 51.728 110.812 51.614 c 110.676 51.103 110.527 
50.63 110.203 50.63 c 109.965 50.63 109.965 50.88 109.965 50.989 c 109.965
 51.192 109.977 51.228 110.016 51.38 c h
f
114.43 50.259 m 114.43 50.458 l 113.805 50.458 l 113.805 52.946 l 113.805
 53.06 113.805 53.106 113.691 53.106 c 113.617 53.106 113.594 53.106 113.543
 53.02 c 111.691 50.458 l 111.691 50.259 l 113.344 50.259 l 113.344 49.81
 l 113.344 49.606 113.344 49.544 112.879 49.544 c 112.73 49.544 l 112.73
 49.345 l 113.016 49.356 113.367 49.372 113.566 49.372 c 113.781 49.372 
114.129 49.356 114.418 49.345 c 114.418 49.544 l 114.266 49.544 l 113.805
 49.544 113.805 49.606 113.805 49.81 c 113.805 50.259 l h
113.379 52.497 m 113.379 50.458 l 111.906 50.458 l h
f
129.145 13.372 m 129.191 13.575 129.379 14.31 129.93 14.31 c 129.969 14.31
 130.168 14.31 130.332 14.212 c 130.105 14.161 129.957 13.974 129.957 13.774
 c 129.957 13.649 130.043 13.497 130.254 13.497 c 130.43 13.497 130.68 13.638
 130.68 13.962 c 130.68 14.372 130.219 14.485 129.941 14.485 c 129.48 14.485
 129.207 14.06 129.105 13.888 c 128.906 14.411 128.48 14.485 128.242 14.485
 c 127.418 14.485 126.957 13.462 126.957 13.263 c 126.957 13.173 127.043
 13.173 127.055 13.173 c 127.117 13.173 127.145 13.2 127.156 13.263 c 127.43
 14.11 127.957 14.31 128.23 14.31 c 128.379 14.31 128.656 14.235 128.656
 13.774 c 128.656 13.524 128.52 12.997 128.23 11.872 c 128.105 11.388 127.816
 11.048 127.469 11.048 c 127.418 11.048 127.242 11.048 127.066 11.149 c 
127.27 11.2 127.441 11.36 127.441 11.587 c 127.441 11.798 127.27 11.86 127.156
 11.86 c 126.906 11.86 126.719 11.661 126.719 11.399 c 126.719 11.036 127.105
 10.872 127.457 10.872 c 127.992 10.872 128.281 11.435 128.293 11.474 c 
128.395 11.185 128.68 10.872 129.156 10.872 c 129.98 10.872 130.43 11.899
 130.43 12.099 c 130.43 12.185 130.367 12.185 130.344 12.185 c 130.27 12.185
 130.254 12.149 130.23 12.099 c 129.969 11.235 129.43 11.048 129.18 11.048
 c 128.867 11.048 128.742 11.298 128.742 11.575 c 128.742 11.747 128.781
 11.923 128.867 12.274 c h
f
133.984 10.677 m 133.984 10.88 l 133.359 10.88 l 133.359 13.364 l 133.359
 13.478 133.359 13.528 133.25 13.528 c 133.172 13.528 133.148 13.528 133.098
 13.442 c 131.25 10.88 l 131.25 10.677 l 132.898 10.677 l 132.898 10.228
 l 132.898 10.028 132.898 9.966 132.438 9.966 c 132.285 9.966 l 132.285 
9.767 l 132.574 9.778 132.922 9.79 133.125 9.79 c 133.336 9.79 133.688 9.778
 133.973 9.767 c 133.973 9.966 l 133.824 9.966 l 133.359 9.966 133.359 10.028
 133.359 10.228 c 133.359 10.677 l h
132.938 12.915 m 132.938 10.88 l 131.461 10.88 l h
f
73.363 62.622 m 73.375 62.657 73.398 62.708 73.398 62.735 c 73.398 62.735
 73.398 62.821 73.301 62.821 c 73.223 62.821 73.211 62.77 73.199 62.72 c
 72.676 61.548 72.387 61.009 71.023 61.009 c 69.688 61.009 l 69.598 61.02
 69.574 61.032 69.574 61.095 c 69.574 61.122 69.574 61.134 69.613 61.27 
c 70.16 63.458 l 70.949 63.458 l 71.625 63.458 71.625 63.282 71.625 63.083
 c 71.625 63.032 71.625 62.935 71.574 62.696 c 71.562 62.657 71.551 62.634
 71.551 62.61 c 71.551 62.571 71.574 62.52 71.648 62.52 c 71.711 62.52 71.738
 62.56 71.773 62.685 c 72.223 64.548 l 72.223 64.595 72.188 64.634 72.125
 64.634 c 72.062 64.634 72.035 64.583 72.023 64.497 c 71.848 63.884 71.711
 63.696 70.973 63.696 c 70.223 63.696 l 70.699 65.622 l 70.773 65.907 70.785
 65.935 71.137 65.935 c 72.262 65.935 l 73.223 65.935 73.473 65.708 73.473
 65.048 c 73.473 64.86 73.473 64.845 73.438 64.622 c 73.438 64.583 73.426
 64.52 73.426 64.485 c 73.426 64.446 73.449 64.384 73.523 64.384 c 73.613
 64.384 73.625 64.435 73.637 64.583 c 73.801 65.97 l 73.824 66.185 73.785
 66.185 73.586 66.185 c 69.551 66.185 l 69.398 66.185 69.312 66.185 69.312
 66.02 c 69.312 65.935 69.387 65.935 69.535 65.935 c 69.836 65.935 70.062
 65.935 70.062 65.798 c 70.062 65.759 70.062 65.747 70.012 65.595 c 68.961
 61.384 l 68.887 61.071 68.875 61.009 68.238 61.009 c 68.098 61.009 68.012
 61.009 68.012 60.86 c 68.012 60.759 68.086 60.759 68.238 60.759 c 72.375
 60.759 l 72.562 60.759 72.574 60.77 72.625 60.895 c h
f
75.918 67.2 m 75.918 67.353 75.918 67.353 75.754 67.353 c 75.395 67.001
 74.895 67.001 74.668 67.001 c 74.668 66.802 l 74.793 66.802 75.168 66.802
 75.469 66.95 c 75.469 64.114 l 75.469 63.927 75.469 63.853 74.918 63.853
 c 74.707 63.853 l 74.707 63.653 l 74.805 63.653 75.492 63.677 75.691 63.677
 c 75.867 63.677 76.566 63.653 76.691 63.653 c 76.691 63.853 l 76.48 63.853
 l 75.918 63.853 75.918 63.927 75.918 64.114 c h
f
76.547 59.692 m 76.547 59.895 l 75.922 59.895 l 75.922 62.38 l 75.922 62.493
 75.922 62.544 75.809 62.544 c 75.734 62.544 75.707 62.544 75.656 62.458
 c 73.809 59.895 l 73.809 59.692 l 75.457 59.692 l 75.457 59.243 l 75.457
 59.044 75.457 58.981 74.996 58.981 c 74.844 58.981 l 74.844 58.782 l 75.133
 58.794 75.484 58.806 75.684 58.806 c 75.895 58.806 76.246 58.794 76.531
 58.782 c 76.531 58.981 l 76.383 58.981 l 75.922 58.981 75.922 59.044 75.922
 59.243 c 75.922 59.692 l h
75.496 61.931 m 75.496 59.895 l 74.02 59.895 l h
f
189.895 62.622 m 189.906 62.657 189.93 62.708 189.93 62.735 c 189.93 62.735
 189.93 62.821 189.832 62.821 c 189.754 62.821 189.742 62.77 189.73 62.72
 c 189.207 61.548 188.918 61.009 187.555 61.009 c 186.219 61.009 l 186.129
 61.02 186.105 61.032 186.105 61.095 c 186.105 61.122 186.105 61.134 186.145
 61.27 c 186.691 63.458 l 187.48 63.458 l 188.156 63.458 188.156 63.282 
188.156 63.083 c 188.156 63.032 188.156 62.935 188.105 62.696 c 188.094 
62.657 188.082 62.634 188.082 62.61 c 188.082 62.571 188.105 62.52 188.18
 62.52 c 188.242 62.52 188.27 62.56 188.305 62.685 c 188.754 64.548 l 188.754
 64.595 188.719 64.634 188.656 64.634 c 188.594 64.634 188.566 64.583 188.555
 64.497 c 188.379 63.884 188.242 63.696 187.504 63.696 c 186.754 63.696 
l 187.23 65.622 l 187.305 65.907 187.316 65.935 187.668 65.935 c 188.793
 65.935 l 189.754 65.935 190.004 65.708 190.004 65.048 c 190.004 64.86 190.004
 64.845 189.969 64.622 c 189.969 64.583 189.957 64.52 189.957 64.485 c 189.957
 64.446 189.98 64.384 190.055 64.384 c 190.145 64.384 190.156 64.435 190.168
 64.583 c 190.332 65.97 l 190.355 66.185 190.316 66.185 190.117 66.185 c
 186.082 66.185 l 185.93 66.185 185.844 66.185 185.844 66.02 c 185.844 65.935
 185.918 65.935 186.066 65.935 c 186.367 65.935 186.594 65.935 186.594 65.798
 c 186.594 65.759 186.594 65.747 186.543 65.595 c 185.492 61.384 l 185.418
 61.071 185.406 61.009 184.77 61.009 c 184.629 61.009 184.543 61.009 184.543
 60.86 c 184.543 60.759 184.617 60.759 184.77 60.759 c 188.906 60.759 l 
189.094 60.759 189.105 60.77 189.156 60.895 c h
f
192.113 65.513 m 192.551 65.513 192.863 65.216 192.863 64.614 c 192.863
 63.927 192.449 63.716 192.137 63.716 c 191.91 63.716 191.41 63.778 191.188
 64.114 c 191.449 64.114 191.512 64.302 191.512 64.427 c 191.512 64.603 
191.375 64.728 191.199 64.728 c 191.051 64.728 190.887 64.626 190.887 64.403
 c 190.887 63.876 191.461 63.54 192.137 63.54 c 192.91 63.54 193.449 64.063
 193.449 64.614 c 193.449 65.052 193.098 65.489 192.488 65.614 c 193.062
 65.825 193.273 66.239 193.273 66.591 c 193.273 67.028 192.773 67.353 192.148
 67.353 c 191.535 67.353 191.062 67.052 191.062 66.603 c 191.062 66.415 
191.188 66.313 191.348 66.313 c 191.523 66.313 191.637 66.438 191.637 66.591
 c 191.637 66.751 191.523 66.876 191.348 66.888 c 191.551 67.126 191.926
 67.188 192.137 67.188 c 192.387 67.188 192.738 67.063 192.738 66.591 c 
192.738 66.353 192.66 66.091 192.512 65.927 c 192.336 65.716 192.176 65.7
 191.898 65.677 c 191.762 65.665 191.75 65.665 191.723 65.665 c 191.711 
65.665 191.66 65.653 191.66 65.591 c 191.66 65.513 191.711 65.513 191.812
 65.513 c h
f
193.078 59.692 m 193.078 59.895 l 192.453 59.895 l 192.453 62.38 l 192.453
 62.493 192.453 62.544 192.34 62.544 c 192.266 62.544 192.238 62.544 192.188
 62.458 c 190.34 59.895 l 190.34 59.692 l 191.988 59.692 l 191.988 59.243
 l 191.988 59.044 191.988 58.981 191.527 58.981 c 191.375 58.981 l 191.375
 58.782 l 191.664 58.794 192.016 58.806 192.215 58.806 c 192.426 58.806 
192.777 58.794 193.062 58.782 c 193.062 58.981 l 192.914 58.981 l 192.453
 58.981 192.453 59.044 192.453 59.243 c 192.453 59.692 l h
192.027 61.931 m 192.027 59.895 l 190.551 59.895 l h
f
179.43 120.888 m 179.441 120.923 179.465 120.974 179.465 121.001 c 179.465
 121.001 179.465 121.087 179.367 121.087 c 179.289 121.087 179.277 121.036
 179.266 120.985 c 178.742 119.813 178.453 119.274 177.09 119.274 c 175.754
 119.274 l 175.664 119.286 175.641 119.298 175.641 119.36 c 175.641 119.388
 175.641 119.399 175.68 119.536 c 176.227 121.724 l 177.016 121.724 l 177.691
 121.724 177.691 121.548 177.691 121.349 c 177.691 121.298 177.691 121.2
 177.641 120.962 c 177.629 120.923 177.617 120.899 177.617 120.876 c 177.617
 120.837 177.641 120.786 177.715 120.786 c 177.777 120.786 177.805 120.825
 177.84 120.95 c 178.289 122.813 l 178.289 122.86 178.254 122.899 178.191
 122.899 c 178.129 122.899 178.102 122.849 178.09 122.763 c 177.914 122.149
 177.777 121.962 177.039 121.962 c 176.289 121.962 l 176.766 123.888 l 176.84
 124.173 176.852 124.2 177.203 124.2 c 178.328 124.2 l 179.289 124.2 179.539
 123.974 179.539 123.313 c 179.539 123.126 179.539 123.11 179.504 122.888
 c 179.504 122.849 179.492 122.786 179.492 122.751 c 179.492 122.712 179.516
 122.649 179.59 122.649 c 179.68 122.649 179.691 122.7 179.703 122.849 c
 179.867 124.235 l 179.891 124.45 179.852 124.45 179.652 124.45 c 175.617
 124.45 l 175.465 124.45 175.379 124.45 175.379 124.286 c 175.379 124.2 
175.453 124.2 175.602 124.2 c 175.902 124.2 176.129 124.2 176.129 124.063
 c 176.129 124.024 176.129 124.013 176.078 123.86 c 175.027 119.649 l 174.953
 119.337 174.941 119.274 174.305 119.274 c 174.164 119.274 174.078 119.274
 174.078 119.126 c 174.078 119.024 174.152 119.024 174.305 119.024 c 178.441
 119.024 l 178.629 119.024 178.641 119.036 178.691 119.161 c h
f
182.934 122.931 m 182.746 122.931 l 182.734 122.806 182.672 122.481 182.598
 122.431 c 182.559 122.392 182.133 122.392 182.047 122.392 c 181.02 122.392
 l 181.609 122.903 181.809 123.067 182.133 123.329 c 182.547 123.653 182.934
 124.005 182.934 124.528 c 182.934 125.204 182.348 125.618 181.633 125.618
 c 180.945 125.618 180.473 125.13 180.473 124.618 c 180.473 124.341 180.707
 124.306 180.77 124.306 c 180.895 124.306 181.059 124.403 181.059 124.606
 c 181.059 124.704 181.02 124.903 180.734 124.903 c 180.91 125.294 181.285
 125.419 181.547 125.419 c 182.109 125.419 182.395 124.981 182.395 124.528
 c 182.395 124.044 182.047 123.669 181.871 123.466 c 180.535 122.13 l 180.473
 122.079 180.473 122.067 180.473 121.919 c 182.77 121.919 l h
f
181.188 118.911 m 181.625 118.911 181.938 118.61 181.938 118.009 c 181.938
 117.321 181.523 117.11 181.211 117.11 c 180.984 117.11 180.484 117.173 
180.262 117.509 c 180.523 117.509 180.586 117.696 180.586 117.821 c 180.586
 117.997 180.449 118.122 180.273 118.122 c 180.125 118.122 179.961 118.02
 179.961 117.798 c 179.961 117.27 180.535 116.935 181.211 116.935 c 181.984
 116.935 182.523 117.458 182.523 118.009 c 182.523 118.446 182.172 118.884
 181.562 119.009 c 182.137 119.224 182.348 119.634 182.348 119.985 c 182.348
 120.423 181.848 120.747 181.223 120.747 c 180.609 120.747 180.137 120.446
 180.137 119.997 c 180.137 119.81 180.262 119.708 180.422 119.708 c 180.598
 119.708 180.711 119.833 180.711 119.985 c 180.711 120.145 180.598 120.27
 180.422 120.286 c 180.625 120.52 181 120.583 181.211 120.583 c 181.461 
120.583 181.812 120.458 181.812 119.985 c 181.812 119.747 181.734 119.485
 181.586 119.321 c 181.41 119.11 181.25 119.099 180.973 119.071 c 180.836
 119.06 180.824 119.06 180.797 119.06 c 180.785 119.06 180.734 119.048 180.734
 118.985 c 180.734 118.911 180.785 118.911 180.887 118.911 c h
f
85.242 120.888 m 85.254 120.923 85.277 120.974 85.277 121.001 c 85.277 
121.001 85.277 121.087 85.18 121.087 c 85.105 121.087 85.09 121.036 85.078
 120.985 c 84.555 119.813 84.266 119.274 82.902 119.274 c 81.566 119.274
 l 81.48 119.286 81.453 119.298 81.453 119.36 c 81.453 119.388 81.453 119.399
 81.492 119.536 c 82.043 121.724 l 82.828 121.724 l 83.504 121.724 83.504
 121.548 83.504 121.349 c 83.504 121.298 83.504 121.2 83.453 120.962 c 83.441
 120.923 83.43 120.899 83.43 120.876 c 83.43 120.837 83.453 120.786 83.527
 120.786 c 83.59 120.786 83.617 120.825 83.652 120.95 c 84.105 122.813 l
 84.105 122.86 84.066 122.899 84.004 122.899 c 83.941 122.899 83.918 122.849
 83.902 122.763 c 83.73 122.149 83.59 121.962 82.855 121.962 c 82.105 121.962
 l 82.578 123.888 l 82.652 124.173 82.668 124.2 83.016 124.2 c 84.141 124.2
 l 85.105 124.2 85.355 123.974 85.355 123.313 c 85.355 123.126 85.355 123.11
 85.316 122.888 c 85.316 122.849 85.305 122.786 85.305 122.751 c 85.305 
122.712 85.328 122.649 85.402 122.649 c 85.492 122.649 85.504 122.7 85.516
 122.849 c 85.68 124.235 l 85.703 124.45 85.668 124.45 85.465 124.45 c 81.43
 124.45 l 81.277 124.45 81.191 124.45 81.191 124.286 c 81.191 124.2 81.266
 124.2 81.418 124.2 c 81.715 124.2 81.941 124.2 81.941 124.063 c 81.941 
124.024 81.941 124.013 81.891 123.86 c 80.84 119.649 l 80.766 119.337 80.754
 119.274 80.117 119.274 c 79.98 119.274 79.891 119.274 79.891 119.126 c 
79.891 119.024 79.965 119.024 80.117 119.024 c 84.254 119.024 l 84.441 119.024
 84.453 119.036 84.504 119.161 c h
f
87.797 125.466 m 87.797 125.618 87.797 125.618 87.633 125.618 c 87.273 
125.267 86.773 125.267 86.547 125.267 c 86.547 125.067 l 86.672 125.067 
87.047 125.067 87.348 125.216 c 87.348 122.38 l 87.348 122.192 87.348 122.118
 86.797 122.118 c 86.586 122.118 l 86.586 121.919 l 86.684 121.919 87.371
 121.942 87.57 121.942 c 87.746 121.942 88.445 121.919 88.57 121.919 c 88.57
 122.118 l 88.359 122.118 l 87.797 122.118 87.797 122.192 87.797 122.38 
c h
f
88.285 118.06 m 88.098 118.06 l 88.086 117.935 88.023 117.61 87.949 117.56
 c 87.91 117.52 87.488 117.52 87.398 117.52 c 86.375 117.52 l 86.961 118.036
 87.16 118.196 87.488 118.458 c 87.898 118.786 88.285 119.134 88.285 119.661
 c 88.285 120.333 87.699 120.747 86.988 120.747 c 86.301 120.747 85.824 
120.259 85.824 119.747 c 85.824 119.474 86.062 119.435 86.125 119.435 c 
86.25 119.435 86.41 119.536 86.41 119.735 c 86.41 119.833 86.375 120.036
 86.086 120.036 c 86.262 120.423 86.637 120.548 86.898 120.548 c 87.461 
120.548 87.75 120.11 87.75 119.661 c 87.75 119.173 87.398 118.798 87.223
 118.599 c 85.887 117.259 l 85.824 117.208 85.824 117.196 85.824 117.048
 c 88.125 117.048 l h
f
Q Q
showpage
%%Trailer
end restore
%%EOF
