%!PS-Adobe-3.0 EPSF-3.0
%%Creator: cairo 1.12.2 (http://cairographics.org)
%%CreationDate: Fri Jun 15 13:01:38 2012
%%Pages: 1
%%DocumentData: Clean7Bit
%%LanguageLevel: 2
%%BoundingBox: 0 -1 496 275
%%EndComments
%%BeginProlog
save
50 dict begin
/q { gsave } bind def
/Q { grestore } bind def
/cm { 6 array astore concat } bind def
/w { setlinewidth } bind def
/J { setlinecap } bind def
/j { setlinejoin } bind def
/M { setmiterlimit } bind def
/d { setdash } bind def
/m { moveto } bind def
/l { lineto } bind def
/c { curveto } bind def
/h { closepath } bind def
/re { exch dup neg 3 1 roll 5 3 roll moveto 0 rlineto
      0 exch rlineto 0 rlineto closepath } bind def
/S { stroke } bind def
/f { fill } bind def
/f* { eofill } bind def
/n { newpath } bind def
/W { clip } bind def
/W* { eoclip } bind def
/BT { } bind def
/ET { } bind def
/pdfmark where { pop globaldict /?pdfmark /exec load put }
    { globaldict begin /?pdfmark /pop load def /pdfmark
    /cleartomark load def end } ifelse
/BDC { mark 3 1 roll /BDC pdfmark } bind def
/EMC { mark /EMC pdfmark } bind def
/cairo_store_point { /cairo_point_y exch def /cairo_point_x exch def } def
/Tj { show currentpoint cairo_store_point } bind def
/TJ {
  {
    dup
    type /stringtype eq
    { show } { -0.001 mul 0 cairo_font_matrix dtransform rmoveto } ifelse
  } forall
  currentpoint cairo_store_point
} bind def
/cairo_selectfont { cairo_font_matrix aload pop pop pop 0 0 6 array astore
    cairo_font exch selectfont cairo_point_x cairo_point_y moveto } bind def
/Tf { pop /cairo_font exch def /cairo_font_matrix where
      { pop cairo_selectfont } if } bind def
/Td { matrix translate cairo_font_matrix matrix concatmatrix dup
      /cairo_font_matrix exch def dup 4 get exch 5 get cairo_store_point
      /cairo_font where { pop cairo_selectfont } if } bind def
/Tm { 2 copy 8 2 roll 6 array astore /cairo_font_matrix exch def
      cairo_store_point /cairo_font where { pop cairo_selectfont } if } bind def
/g { setgray } bind def
/rg { setrgbcolor } bind def
/d1 { setcachedevice } bind def
%%EndProlog
%%Page: 1 1
%%BeginPageSetup
%%PageBoundingBox: 0 -1 496 275
%%EndPageSetup
q 0 -1 496 276 rectclip q
0 g
0.8 w
0 J
0 j
[] 0.0 d
4 M q 1 0 0 -1 0 274.557617 cm
325.113 141.965 m 325.113 155.133 314.441 165.805 301.273 165.805 c 288.109
 165.805 277.438 155.133 277.438 141.965 c 277.438 128.801 288.109 118.125
 301.273 118.125 c 314.441 118.125 325.113 128.801 325.113 141.965 c h
S Q
q 1 0 0 -1 0 274.557617 cm
89.145 44.184 m 89.145 57.348 78.469 68.023 65.305 68.023 c 52.137 68.023
 41.465 57.348 41.465 44.184 c 41.465 31.016 52.137 20.344 65.305 20.344
 c 78.469 20.344 89.145 31.016 89.145 44.184 c h
S Q
q 1 0 0 -1 0 274.557617 cm
87.477 210.656 m 87.477 223.824 76.805 234.496 63.637 234.496 c 50.473 
234.496 39.801 223.824 39.801 210.656 c 39.801 197.488 50.473 186.816 63.637
 186.816 c 76.805 186.816 87.477 197.488 87.477 210.656 c h
S Q
q 1 0 0 -1 0 274.557617 cm
334.812 232.477 m 334.812 245.641 324.141 256.316 310.973 256.316 c 297.805
 256.316 287.133 245.641 287.133 232.477 c 287.133 219.309 297.805 208.637
 310.973 208.637 c 324.141 208.637 334.812 219.309 334.812 232.477 c h
S Q
q 1 0 0 -1 0 274.557617 cm
270.164 44.184 m 270.164 57.348 259.488 68.023 246.324 68.023 c 233.156
 68.023 222.484 57.348 222.484 44.184 c 222.484 31.016 233.156 20.344 246.324
 20.344 c 259.488 20.344 270.164 31.016 270.164 44.184 c h
S Q
q 1 0 0 -1 0 274.557617 cm
460.07 44.977 m 460.07 58.141 449.398 68.816 436.23 68.816 c 423.066 68.816
 412.391 58.141 412.391 44.977 c 412.391 31.809 423.066 21.137 436.23 21.137
 c 449.398 21.137 460.07 31.809 460.07 44.977 c h
S Q
q 1 0 0 -1 0 274.557617 cm
407.543 173.484 m 407.543 186.648 396.871 197.324 383.703 197.324 c 370.539
 197.324 359.863 186.648 359.863 173.484 c 359.863 160.316 370.539 149.645
 383.703 149.645 c 396.871 149.645 407.543 160.316 407.543 173.484 c h
S Q
437.324 234.972 m 437.324 235.21 l 437.301 235.257 l 437.301 235.401 l 
437.277 235.499 l 437.25 235.593 l 437.203 235.788 l 437.156 235.929 l 437.133
 236.003 l 437.109 236.073 l 437.059 236.124 l 437.035 236.194 l 436.988
 236.241 l 436.965 236.292 l 436.914 236.339 l 436.844 236.409 l 436.797
 236.46 l 436.746 236.483 l 436.605 236.554 l 436.578 236.577 l 436.531 
236.604 l 436.484 236.604 l 436.438 236.628 l 436.363 236.628 l 436.316 
236.651 l 436.27 236.651 l 435.668 236.651 435.09 236.026 435.09 235.499
 c 435.09 235.187 435.211 235.042 435.477 234.78 c 435.98 234.3 436.293 
233.675 436.293 232.835 c 436.293 231.827 434.828 226.354 432.043 226.354
 c 430.82 226.354 430.27 227.194 430.27 228.444 c 430.27 229.788 430.914
 231.515 431.66 233.483 c 431.828 233.89 431.949 234.226 431.949 234.683
 c 431.949 235.761 431.18 236.651 429.98 236.651 c 427.746 236.651 426.836
 233.171 426.836 232.979 c 426.836 232.737 427.074 232.737 427.125 232.737
 c 427.363 232.737 427.387 232.788 427.508 233.147 c 428.203 235.569 429.211
 236.124 429.906 236.124 c 430.102 236.124 430.508 236.124 430.508 235.354
 c 430.508 234.753 430.27 234.108 430.102 233.675 c 429.066 230.913 428.754
 229.812 428.754 228.804 c 428.754 226.21 430.844 225.851 431.949 225.851
 c 435.957 225.851 437.324 233.722 437.324 234.972 c h
f
443.324 233.124 m 443.324 233.409 l 443.301 233.437 l 443.301 233.483 l
 443.277 233.507 l 443.277 233.53 l 443.25 233.53 l 443.25 233.554 l 443.203
 233.554 l 443.203 233.577 l 443.082 233.577 l 443.082 233.604 l 442.82 
233.604 l 441.762 232.546 440.25 232.522 439.555 232.522 c 439.555 231.921
 l 439.965 231.921 441.066 231.921 441.98 232.401 c 441.98 223.882 l 441.98
 223.331 441.98 223.116 440.301 223.116 c 439.676 223.116 l 439.676 222.515
 l 439.965 222.538 442.027 222.585 442.652 222.585 c 443.156 222.585 445.27
 222.538 445.629 222.515 c 445.629 223.116 l 445.004 223.116 l 443.324 223.116
 443.324 223.331 443.324 223.882 c h
f
384.52 106.464 m 384.52 106.702 l 384.496 106.753 l 384.496 106.894 l 384.449
 107.089 l 384.422 107.183 l 384.398 107.28 l 384.375 107.351 l 384.352 
107.425 l 384.305 107.565 l 384.254 107.616 l 384.23 107.687 l 384.184 107.733
 l 384.16 107.784 l 384.113 107.831 l 384.062 107.878 l 384.039 107.901 
l 383.992 107.952 l 383.945 107.976 l 383.895 107.999 l 383.801 108.046 
l 383.777 108.069 l 383.727 108.097 l 383.68 108.097 l 383.633 108.12 l 
383.559 108.12 l 383.512 108.144 l 383.465 108.144 l 382.863 108.144 382.289
 107.519 382.289 106.991 c 382.289 106.679 382.406 106.534 382.672 106.272
 c 383.176 105.792 383.488 105.167 383.488 104.327 c 383.488 103.319 382.023
 97.847 379.238 97.847 c 378.016 97.847 377.465 98.687 377.465 99.937 c 
377.465 101.28 378.113 103.007 378.855 104.976 c 379.023 105.382 379.145
 105.718 379.145 106.175 c 379.145 107.257 378.375 108.144 377.176 108.144
 c 374.945 108.144 374.031 104.663 374.031 104.472 c 374.031 104.229 374.273
 104.229 374.32 104.229 c 374.559 104.229 374.582 104.28 374.703 104.64 
c 375.398 107.062 376.406 107.616 377.105 107.616 c 377.297 107.616 377.703
 107.616 377.703 106.847 c 377.703 106.245 377.465 105.601 377.297 105.167
 c 376.266 102.405 375.953 101.304 375.953 100.296 c 375.953 97.702 378.039
 97.343 379.145 97.343 c 383.152 97.343 384.52 105.214 384.52 106.464 c 
h
f
393.375 97.054 m 392.801 97.054 l 392.75 96.671 392.582 95.687 392.367 
95.519 c 392.223 95.425 390.953 95.425 390.711 95.425 c 387.641 95.425 l
 389.391 96.983 389.969 97.44 390.977 98.229 c 392.223 99.214 393.375 100.245
 393.375 101.831 c 393.375 103.847 391.602 105.097 389.465 105.097 c 387.398
 105.097 385.984 103.632 385.984 102.097 c 385.984 101.257 386.703 101.159
 386.871 101.159 c 387.281 101.159 387.758 101.448 387.758 102.046 c 387.758
 102.358 387.641 102.937 386.777 102.937 c 387.281 104.136 388.434 104.495
 389.199 104.495 c 390.879 104.495 391.742 103.198 391.742 101.831 c 391.742
 100.39 390.711 99.237 390.184 98.64 c 386.152 94.655 l 385.984 94.511 385.984
 94.487 385.984 94.007 c 392.871 94.007 l h
f
311.715 47.64 m 311.715 47.878 l 311.691 47.925 l 311.691 48.069 l 311.668
 48.167 l 311.645 48.261 l 311.621 48.358 l 311.598 48.452 l 311.574 48.526
 l 311.547 48.597 l 311.523 48.671 l 311.5 48.741 l 311.453 48.788 l 311.43
 48.862 l 311.379 48.909 l 311.355 48.96 l 311.188 49.128 l 311.094 49.175
 l 311.043 49.198 l 310.996 49.222 l 310.973 49.245 l 310.926 49.269 l 310.875
 49.269 l 310.828 49.296 l 310.758 49.296 l 310.707 49.319 l 310.66 49.319
 l 310.062 49.319 309.484 48.694 309.484 48.167 c 309.484 47.854 309.605
 47.71 309.867 47.444 c 310.371 46.968 310.684 46.343 310.684 45.503 c 310.684
 44.495 309.219 39.022 306.438 39.022 c 305.211 39.022 304.66 39.862 304.66
 41.108 c 304.66 42.452 305.309 44.183 306.051 46.151 c 306.219 46.558 306.34
 46.894 306.34 47.351 c 306.34 48.429 305.574 49.319 304.371 49.319 c 302.141
 49.319 301.23 45.839 301.23 45.647 c 301.23 45.405 301.469 45.405 301.516
 45.405 c 301.758 45.405 301.781 45.452 301.902 45.815 c 302.598 48.237 
303.605 48.788 304.301 48.788 c 304.492 48.788 304.902 48.788 304.902 48.022
 c 304.902 47.421 304.66 46.772 304.492 46.343 c 303.461 43.581 303.148 
42.479 303.148 41.472 c 303.148 38.878 305.238 38.519 306.34 38.519 c 310.348
 38.519 311.715 46.39 311.715 47.64 c h
f
316.684 40.749 m 316.926 40.749 l 317.043 40.726 l 317.164 40.726 l 317.262
 40.702 l 317.379 40.655 l 317.477 40.632 l 317.598 40.581 l 317.691 40.534
 l 317.789 40.487 l 317.883 40.437 l 317.98 40.39 l 318.051 40.319 l 318.148
 40.245 l 318.219 40.175 l 318.293 40.077 l 318.363 40.007 l 318.438 39.909
 l 318.508 39.815 l 318.559 39.694 l 318.629 39.597 l 318.676 39.479 l 318.727
 39.358 l 318.773 39.237 l 318.797 39.116 l 318.844 38.976 l 318.867 38.854
 l 318.895 38.71 l 318.918 38.542 l 318.918 38.229 l 318.941 38.062 l 318.941
 35.999 317.715 35.374 316.758 35.374 c 316.086 35.374 314.621 35.565 313.926
 36.55 c 314.691 36.597 314.883 37.128 314.883 37.487 c 314.883 38.015 314.477
 38.397 313.973 38.397 c 313.492 38.397 313.035 38.136 313.035 37.437 c 
313.035 35.878 314.766 34.847 316.781 34.847 c 319.109 34.847 320.715 36.405
 320.715 38.062 c 320.715 39.382 319.66 40.679 317.812 41.062 c 319.566 
41.687 320.188 42.933 320.188 43.968 c 320.188 45.284 318.676 46.269 316.828
 46.269 c 314.98 46.269 313.539 45.358 313.539 44.038 c 313.539 43.464 313.926
 43.151 314.406 43.151 c 314.934 43.151 315.27 43.534 315.27 43.991 c 315.27
 44.472 314.934 44.831 314.406 44.854 c 315.004 45.597 316.156 45.788 316.781
 45.788 c 317.523 45.788 318.582 45.405 318.582 43.968 c 318.582 43.269 
318.34 42.503 317.91 41.976 c 317.355 41.351 316.902 41.304 316.062 41.253
 c 315.629 41.229 315.605 41.229 315.531 41.206 c 315.484 41.206 315.34 
41.183 315.34 40.991 c 315.34 40.749 315.508 40.749 315.797 40.749 c h
f
301.887 137.979 m 301.887 138.218 l 301.863 138.269 l 301.863 138.413 l
 301.84 138.507 l 301.816 138.604 l 301.793 138.698 l 301.766 138.796 l 
301.742 138.866 l 301.719 138.94 l 301.695 139.011 l 301.672 139.085 l 301.625
 139.132 l 301.598 139.202 l 301.551 139.253 l 301.527 139.3 l 301.359 139.468
 l 301.312 139.491 l 301.262 139.515 l 301.215 139.538 l 301.168 139.565
 l 301.145 139.589 l 301.094 139.612 l 301.047 139.612 l 301 139.636 l 300.926
 139.636 l 300.879 139.659 l 300.832 139.659 l 300.23 139.659 299.656 139.034
 299.656 138.507 c 299.656 138.194 299.773 138.05 300.039 137.788 c 300.543
 137.308 300.855 136.683 300.855 135.843 c 300.855 134.835 299.391 129.362
 296.605 129.362 c 295.383 129.362 294.832 130.202 294.832 131.452 c 294.832
 132.796 295.48 134.522 296.223 136.491 c 296.391 136.901 296.512 137.237
 296.512 137.69 c 296.512 138.772 295.742 139.659 294.543 139.659 c 292.312
 139.659 291.398 136.179 291.398 135.987 c 291.398 135.749 291.641 135.749
 291.688 135.749 c 291.926 135.749 291.953 135.796 292.07 136.155 c 292.766
 138.581 293.773 139.132 294.473 139.132 c 294.664 139.132 295.07 139.132
 295.07 138.362 c 295.07 137.765 294.832 137.116 294.664 136.683 c 293.633
 133.925 293.32 132.819 293.32 131.812 c 293.32 129.218 295.406 128.858 
296.512 128.858 c 300.52 128.858 301.887 136.733 301.887 137.979 c h
f
311.152 128.261 m 311.152 128.858 l 309.277 128.858 l 309.277 136.3 l 309.277
 136.659 309.277 136.78 308.918 136.78 c 308.703 136.78 308.656 136.78 308.488
 136.538 c 302.941 128.858 l 302.941 128.261 l 307.863 128.261 l 307.984
 128.858 l 303.566 128.858 l 307.984 134.979 l 307.984 128.858 l 307.863
 128.261 l 307.863 126.894 l 307.863 126.339 307.863 126.124 306.52 126.124
 c 306.062 126.124 l 306.062 125.522 l 306.902 125.573 307.961 125.597 308.559
 125.597 c 309.184 125.597 310.262 125.573 311.078 125.522 c 311.078 126.124
 l 310.648 126.124 l 309.277 126.124 309.277 126.339 309.277 126.894 c 309.277
 128.261 l h
f
247.141 235.929 m 247.141 236.171 l 247.113 236.218 l 247.113 236.362 l
 247.09 236.46 l 247.066 236.554 l 247.043 236.651 l 247.02 236.745 l 246.996
 236.819 l 246.973 236.89 l 246.945 236.964 l 246.922 237.034 l 246.875 
237.081 l 246.852 237.155 l 246.805 237.202 l 246.777 237.249 l 246.73 237.3
 l 246.66 237.37 l 246.609 237.417 l 246.562 237.444 l 246.469 237.491 l
 246.418 237.515 l 246.395 237.538 l 246.348 237.562 l 246.301 237.562 l
 246.25 237.585 l 246.18 237.585 l 246.133 237.612 l 246.082 237.612 l 245.484
 237.612 244.906 236.987 244.906 236.46 c 244.906 236.147 245.027 236.003
 245.289 235.737 c 245.797 235.257 246.105 234.636 246.105 233.796 c 246.105
 232.788 244.645 227.315 241.859 227.315 c 240.637 227.315 240.082 228.155
 240.082 229.401 c 240.082 230.745 240.73 232.476 241.477 234.444 c 241.645
 234.851 241.762 235.187 241.762 235.644 c 241.762 236.722 240.996 237.612
 239.797 237.612 c 237.562 237.612 236.652 234.132 236.652 233.94 c 236.652
 233.698 236.891 233.698 236.938 233.698 c 237.18 233.698 237.203 233.745
 237.324 234.108 c 238.02 236.53 239.027 237.081 239.723 237.081 c 239.914
 237.081 240.324 237.081 240.324 236.315 c 240.324 235.714 240.082 235.065
 239.914 234.636 c 238.883 231.874 238.57 230.769 238.57 229.761 c 238.57
 227.171 240.66 226.812 241.762 226.812 c 245.77 226.812 247.141 234.683
 247.141 235.929 c h
f
250.141 232.788 m 250.211 232.761 l 250.309 232.761 l 250.449 232.714 l
 250.523 232.714 l 250.594 232.69 l 250.645 232.667 l 250.715 232.667 l 
250.785 232.644 l 250.906 232.644 l 250.953 232.62 l 251.074 232.62 l 251.121
 232.593 l 251.363 232.593 l 251.387 232.569 l 251.77 232.569 l 253.953 
232.569 255.273 234.081 255.273 234.323 c 255.273 234.515 255.156 234.562
 255.082 234.562 c 255.035 234.562 255.012 234.562 254.938 234.515 c 254.531
 234.37 253.645 234.034 252.418 234.034 c 251.938 234.034 251.051 234.058
 249.973 234.468 c 249.805 234.562 249.777 234.562 249.754 234.562 c 249.539
 234.562 249.539 234.37 249.539 234.108 c 249.539 229.187 l 249.539 228.897
 249.539 228.706 249.805 228.706 c 249.945 228.706 249.973 228.729 250.141
 228.948 c 250.859 229.858 251.891 229.979 252.469 229.979 c 253.477 229.979
 253.906 229.187 254.004 229.042 c 254.289 228.491 254.41 227.866 254.41
 226.905 c 254.41 226.401 254.41 225.417 253.906 224.675 c 253.477 224.073
 252.754 223.667 251.938 223.667 c 250.859 223.667 249.73 224.292 249.324
 225.37 c 249.945 225.323 250.281 225.753 250.281 226.187 c 250.281 226.905
 249.66 227.05 249.441 227.05 c 249.395 227.05 248.602 227.05 248.602 226.14
 c 248.602 224.651 249.973 223.14 251.988 223.14 c 254.121 223.14 255.996
 224.722 255.996 226.835 c 255.996 228.706 254.555 230.46 252.492 230.46
 c 251.746 230.46 250.883 230.265 250.141 229.644 c h
f
66.047 235.929 m 66.047 236.171 l 66.023 236.218 l 66.023 236.362 l 66 
236.46 l 65.977 236.554 l 65.953 236.651 l 65.926 236.745 l 65.902 236.819
 l 65.879 236.89 l 65.855 236.964 l 65.832 237.034 l 65.785 237.081 l 65.758
 237.155 l 65.711 237.202 l 65.688 237.249 l 65.641 237.3 l 65.59 237.347
 l 65.52 237.417 l 65.473 237.444 l 65.422 237.468 l 65.328 237.515 l 65.305
 237.538 l 65.254 237.562 l 65.207 237.562 l 65.16 237.585 l 65.086 237.585
 l 65.039 237.612 l 64.992 237.612 l 64.391 237.612 63.816 236.987 63.816
 236.46 c 63.816 236.147 63.938 236.003 64.199 235.737 c 64.703 235.257 
65.016 234.636 65.016 233.796 c 65.016 232.788 63.551 227.315 60.77 227.315
 c 59.543 227.315 58.992 228.155 58.992 229.401 c 58.992 230.745 59.641 
232.476 60.383 234.444 c 60.551 234.851 60.672 235.187 60.672 235.644 c 
60.672 236.722 59.902 237.612 58.703 237.612 c 56.473 237.612 55.559 234.132
 55.559 233.94 c 55.559 233.698 55.801 233.698 55.848 233.698 c 56.086 233.698
 56.113 233.745 56.23 234.108 c 56.926 236.53 57.938 237.081 58.633 237.081
 c 58.824 237.081 59.23 237.081 59.23 236.315 c 59.23 235.714 58.992 235.065
 58.824 234.636 c 57.793 231.874 57.48 230.769 57.48 229.761 c 57.48 227.171
 59.566 226.812 60.672 226.812 c 64.68 226.812 66.047 234.683 66.047 235.929
 c h
f
68.977 228.948 m 68.977 229.69 l 69 229.929 l 69.023 230.171 l 69.047 230.409
 l 69.07 230.651 l 69.094 230.866 l 69.145 231.108 l 69.191 231.323 l 69.262
 231.538 l 69.336 231.753 l 69.359 231.851 l 69.406 231.972 l 69.457 232.065
 l 69.504 232.163 l 69.551 232.257 l 69.598 232.354 l 69.648 232.452 l 69.719
 232.546 l 70.297 233.46 71.184 234.081 72.262 234.081 c 72.77 234.081 73.414
 233.94 73.75 233.483 c 73.344 233.46 72.984 233.171 72.984 232.69 c 72.984
 232.284 73.273 231.897 73.777 231.897 c 74.281 231.897 74.59 232.233 74.59
 232.714 c 74.59 233.698 73.871 234.562 72.215 234.562 c 69.816 234.562 
67.367 232.354 67.367 228.78 c 67.367 224.433 69.406 223.14 71.23 223.14
 c 73.273 223.14 75.047 224.698 75.047 226.882 c 75.047 228.995 73.367 230.577
 71.398 230.577 c 71.328 230.097 l 72.094 230.097 72.598 229.812 73.031 
229.187 c 73.414 228.538 73.441 227.843 73.441 226.882 c 73.441 225.921 
73.441 225.226 72.984 224.577 c 72.598 224.003 72.047 223.667 71.23 223.667
 c 70.391 223.667 69.742 224.171 69.406 224.89 c 69.145 225.394 69.023 226.233
 69.023 227.241 c 69.023 228.851 69.984 230.097 71.328 230.097 c 71.398 
230.577 l 70.055 230.577 69.336 229.69 68.977 228.948 c h
f
64.117 69.456 m 64.117 69.698 l 64.094 69.745 l 64.094 69.89 l 64.07 69.987
 l 64.047 70.081 l 64.023 70.179 l 64 70.272 l 63.977 70.347 l 63.949 70.417
 l 63.926 70.491 l 63.902 70.562 l 63.855 70.608 l 63.832 70.683 l 63.781
 70.729 l 63.758 70.776 l 63.711 70.827 l 63.664 70.874 l 63.637 70.897 
l 63.59 70.944 l 63.543 70.968 l 63.496 70.995 l 63.445 71.019 l 63.398 
71.042 l 63.375 71.065 l 63.328 71.089 l 63.277 71.089 l 63.23 71.112 l 
63.16 71.112 l 63.109 71.136 l 63.062 71.136 l 62.461 71.136 61.887 70.515
 61.887 69.987 c 61.887 69.675 62.008 69.53 62.27 69.265 c 62.773 68.784
 63.086 68.163 63.086 67.323 c 63.086 66.312 61.621 60.843 58.84 60.843 
c 57.613 60.843 57.062 61.683 57.062 62.929 c 57.062 64.272 57.711 66.003
 58.453 67.968 c 58.621 68.378 58.742 68.714 58.742 69.171 c 58.742 70.249
 57.977 71.136 56.773 71.136 c 54.543 71.136 53.629 67.659 53.629 67.464
 c 53.629 67.226 53.871 67.226 53.918 67.226 c 54.16 67.226 54.184 67.272
 54.301 67.632 c 55 70.058 56.008 70.608 56.703 70.608 c 56.895 70.608 57.301
 70.608 57.301 69.843 c 57.301 69.241 57.062 68.593 56.895 68.163 c 55.863
 65.401 55.551 64.296 55.551 63.288 c 55.551 60.698 57.637 60.339 58.742
 60.339 c 62.75 60.339 64.117 68.21 64.117 69.456 c h
f
73.48 67.081 m 73.48 67.104 l 73.504 67.128 l 73.527 67.155 l 73.527 67.179
 l 73.551 67.179 l 73.551 67.202 l 73.574 67.202 l 73.574 67.249 l 73.598
 67.249 l 73.598 67.296 l 73.621 67.323 l 73.621 67.44 l 73.648 67.464 l
 73.648 67.753 l 69.254 67.753 l 68.582 67.753 68.414 67.776 67.816 67.827
 c 66.926 67.897 66.902 67.995 66.855 68.28 c 66.277 68.28 l 65.703 64.706
 l 66.277 64.706 l 66.301 64.968 66.469 66.073 66.734 66.241 c 66.879 66.339
 68.223 66.339 68.461 66.339 c 72.109 66.339 l 71.582 65.64 70.742 64.608
 70.383 64.128 c 68.199 61.249 67.984 58.608 67.984 57.624 c 67.984 57.433
 67.984 56.667 68.773 56.667 c 69.566 56.667 69.566 57.409 69.566 57.647
 c 69.566 58.296 l 69.566 61.538 70.238 63.026 70.957 63.937 c h
f
q 1 0 0 -1 0 274.557617 cm
430.453 68.109 m 391.598 150.98 l S Q
q 1 0 0 -1 0 274.557617 cm
371.496 193.965 m 330.238 218.43 l S Q
q 1 0 0 -1 0 274.557617 cm
306.379 209.078 m 303.609 165.691 l S Q
q 1 0 0 -1 0 274.557617 cm
289.066 121.484 m 259.641 63.957 l S Q
q 1 0 0 -1 0 274.557617 cm
222.496 43.391 m 89.129 43.391 l S Q
0.677465 w
q 1 0 0 -1 0 274.557617 cm
64.887 68.02 m 64.887 186.848 l S Q
0.8 w
q 1 0 0 -1 0 274.557617 cm
323.922 149.426 m 362.84 161.941 l S Q
q 1 0 0 -1 0 274.557617 cm
412.398 44.422 m 270.16 44.422 l S Q
0.799878 w
[ 2.399634 2.399634] 0 d
q 0.846659 0 0 -1 0 274.557617 cm
519.441 184.988 m 519.441 234.238 465.183 274.164 398.257 274.164 c 331.325
 274.164 277.068 234.238 277.068 184.988 c 277.068 135.738 331.325 95.816
 398.257 95.816 c 465.183 95.816 519.441 135.738 519.441 184.988 c h
S Q
0.895089 w
[ 2.685267 2.685267] 0 d
q 0.803595 0 0 -1 0 274.557617 cm
616.171 45.277 m 616.171 70.031 478.339 90.098 308.312 90.098 c 138.285
 90.098 0.452 70.031 0.452 45.277 c 0.452 20.52 138.285 0.453 308.312 0.453
 c 478.339 0.453 616.171 20.52 616.171 45.277 c h
S Q
0.736237 w
[ 2.20871 2.20871] 0 d
q 1 0 0 -0.929734 0 274.557617 cm
105.484 141.199 m 105.484 215.544 87.316 275.81 64.902 275.81 c 42.488 
275.81 24.316 215.544 24.316 141.199 c 24.316 66.85 42.488 6.584 64.902 
6.584 c 87.316 6.584 105.484 66.85 105.484 141.199 c h
S Q
346.809 54.702 m 346.809 54.827 l 346.793 54.862 l 346.793 54.909 l 346.777
 54.94 l 346.777 54.972 l 346.762 55.022 l 346.715 55.116 l 346.699 55.163
 l 346.684 55.198 l 346.648 55.229 l 346.633 55.261 l 346.602 55.292 l 346.57
 55.308 l 346.555 55.343 l 346.523 55.374 l 346.488 55.39 l 346.457 55.421
 l 346.41 55.437 l 346.379 55.452 l 346.348 55.483 l 346.297 55.499 l 346.266
 55.519 l 346.219 55.519 l 346.168 55.534 l 346.121 55.55 l 345.961 55.55
 l 345.656 55.55 345.434 55.39 345.336 55.292 c 345.32 55.261 345.305 55.245
 345.289 55.245 c 345.258 55.245 345.258 55.468 345.258 55.534 c 345.258
 56.046 345.371 57.183 346.363 58.175 c 346.555 58.366 346.555 58.397 346.555
 58.444 c 346.555 58.558 346.473 58.62 346.395 58.62 c 346.219 58.62 344.906
 57.405 344.906 55.534 c 344.906 54.589 345.289 53.87 345.961 53.87 c 346.523
 53.87 346.809 54.3 346.809 54.702 c h
f
349.898 54.702 m 349.898 54.827 l 349.883 54.862 l 349.883 54.909 l 349.867
 54.94 l 349.867 54.972 l 349.852 55.022 l 349.832 55.054 l 349.801 55.116
 l 349.785 55.163 l 349.77 55.198 l 349.738 55.229 l 349.723 55.261 l 349.691
 55.292 l 349.656 55.308 l 349.641 55.343 l 349.609 55.374 l 349.578 55.39
 l 349.547 55.421 l 349.496 55.437 l 349.465 55.452 l 349.434 55.483 l 349.387
 55.499 l 349.355 55.519 l 349.305 55.519 l 349.211 55.55 l 349.051 55.55
 l 348.746 55.55 348.523 55.39 348.426 55.292 c 348.41 55.261 348.395 55.245
 348.379 55.245 c 348.348 55.245 348.348 55.468 348.348 55.534 c 348.348
 56.046 348.457 57.183 349.449 58.175 c 349.641 58.366 349.641 58.397 349.641
 58.444 c 349.641 58.558 349.562 58.62 349.48 58.62 c 349.305 58.62 347.992
 57.405 347.992 55.534 c 347.992 54.589 348.379 53.87 349.051 53.87 c 349.609
 53.87 349.898 54.3 349.898 54.702 c h
f
351.336 53.038 m 351.355 52.733 l 351.371 52.429 l 351.402 52.14 l 351.465
 51.854 l 351.531 51.565 l 351.594 51.276 l 351.691 51.022 l 351.785 50.749
 l 351.898 50.491 l 352.027 50.237 l 352.168 49.995 l 352.312 49.757 l 352.473
 49.534 l 352.633 49.323 l 352.809 49.116 l 353 48.909 l 353.195 48.718 
l 353.402 48.542 l 353.609 48.382 l 353.832 48.222 l 354.059 48.077 l 354.281
 47.933 l 354.523 47.804 l 354.762 47.694 l 355.02 47.597 l 355.273 47.499
 l 355.531 47.437 l 355.801 47.374 l 356.059 47.323 l 356.328 47.276 l 356.602
 47.261 l 356.891 47.261 l 359.48 47.261 361.035 49.468 361.035 51.308 c
 361.035 51.468 361.035 51.581 360.824 51.581 c 360.648 51.581 360.648 51.483
 360.633 51.323 c 360.504 49.054 358.809 47.741 357.066 47.741 c 356.105
 47.741 352.984 48.284 352.984 53.022 c 352.984 57.772 356.09 58.315 357.051
 58.315 c 358.793 58.315 360.203 56.878 360.523 54.558 c 360.555 54.331 
360.555 54.284 360.777 54.284 c 361.035 54.284 361.035 54.331 361.035 54.667
 c 361.035 58.429 l 361.035 58.702 361.035 58.812 360.859 58.812 c 360.793
 58.812 360.73 58.812 360.602 58.62 c 359.816 57.437 l 359.227 58.015 358.41
 58.812 356.891 58.812 c 353.898 58.812 351.336 56.284 351.336 53.038 c 
h
f
369.465 51.007 m 369.449 51.198 l 369.449 51.39 l 369.418 51.565 l 369.387
 51.757 l 369.355 51.933 l 369.305 52.108 l 369.242 52.284 l 369.18 52.444
 l 369.113 52.604 l 369.035 52.765 l 368.953 52.925 l 368.859 53.069 l 368.762
 53.229 l 368.648 53.358 l 368.539 53.499 l 368.426 53.628 l 368.297 53.757
 l 368.168 53.87 l 368.043 53.979 l 367.898 54.077 l 367.754 54.19 l 367.609
 54.269 l 367.465 54.351 l 367.305 54.429 l 367.145 54.491 l 366.984 54.558
 l 366.809 54.604 l 366.648 54.651 l 366.473 54.687 l 366.121 54.718 l 365.945
 54.718 l 365.93 54.382 l 366.633 54.382 367.305 54.03 367.723 53.343 c 
368.137 52.651 368.137 51.741 368.137 51.132 c 368.137 50.558 368.137 49.71
 367.785 49.007 c 367.434 48.284 366.746 47.819 365.945 47.819 c 365.258
 47.819 364.555 48.155 364.121 48.894 c 363.738 49.597 363.738 50.558 363.738
 51.132 c 363.738 51.757 363.738 52.604 364.105 53.308 c 364.539 54.046 
365.289 54.382 365.93 54.382 c 365.945 54.718 l 363.961 54.718 362.41 52.987
 362.41 51.007 c 362.41 48.956 364.059 47.437 365.93 47.437 c 367.852 47.437
 369.465 48.987 369.465 51.007 c h
f
371.691 53.069 m 371.691 48.812 l 371.691 48.093 371.516 48.093 370.441
 48.093 c 370.441 47.597 l 371 47.612 371.816 47.659 372.25 47.659 c 372.648
 47.659 373.48 47.612 374.027 47.597 c 374.027 48.093 l 372.953 48.093 372.777
 48.093 372.777 48.812 c 372.777 51.741 l 372.777 53.39 373.914 54.284 374.938
 54.284 c 375.93 54.284 376.105 53.421 376.105 52.511 c 376.105 48.812 l
 376.105 48.093 375.93 48.093 374.875 48.093 c 374.875 47.597 l 375.418 
47.612 376.234 47.659 376.664 47.659 c 377.082 47.659 377.914 47.612 378.457
 47.597 c 378.457 48.093 l 377.625 48.093 377.227 48.093 377.211 48.573 
c 377.211 51.612 l 377.211 52.972 377.211 53.468 376.715 54.046 c 376.488
 54.315 375.961 54.636 375.051 54.636 c 373.883 54.636 373.129 53.948 372.684
 52.956 c 372.684 54.636 l 370.441 54.46 l 370.441 53.964 l 371.562 53.964
 371.691 53.854 371.691 53.069 c h
f
381.578 54.46 m 381.578 56.3 l 381.578 57.694 382.348 58.46 383.035 58.46
 c 383.082 58.46 383.32 58.46 383.562 58.351 c 383.371 58.284 383.082 58.077
 383.082 57.679 c 383.082 57.308 383.336 57.007 383.77 57.007 c 384.234 
57.007 384.473 57.308 384.473 57.694 c 384.473 58.284 383.883 58.812 383.035
 58.812 c 381.93 58.812 380.57 57.964 380.57 56.284 c 380.57 54.46 l 379.32
 54.46 l 379.32 53.964 l 380.57 53.964 l 380.57 48.812 l 380.57 48.093 380.395
 48.093 379.336 48.093 c 379.336 47.597 l 379.945 47.612 380.699 47.659 
381.145 47.659 c 381.785 47.659 382.539 47.659 383.16 47.597 c 383.16 48.093
 l 382.844 48.093 l 381.656 48.093 381.625 48.269 381.625 48.847 c 381.625
 53.964 l 383.434 53.964 l 383.434 54.46 l h
f
385.434 51.276 m 385.449 51.612 l 385.547 53.979 386.875 54.382 387.418
 54.382 c 389.051 54.382 389.211 52.237 389.211 51.612 c 385.449 51.612 
l 385.434 51.276 l 389.867 51.276 l 390.219 51.276 390.266 51.276 390.266
 51.612 c 390.266 53.183 389.402 54.718 387.418 54.718 c 385.578 54.718 
384.105 53.085 384.105 51.101 c 384.105 48.972 385.785 47.437 387.609 47.437
 c 389.547 47.437 390.266 49.198 390.266 49.499 c 390.266 49.659 390.137
 49.694 390.059 49.694 c 389.914 49.694 389.883 49.597 389.852 49.468 c 
389.289 47.819 387.867 47.819 387.707 47.819 c 386.906 47.819 386.266 48.3
 385.898 48.894 c 385.434 49.659 385.434 50.702 385.434 51.276 c h
f
393.402 52.878 m 393.402 54.636 l 391.195 54.46 l 391.195 53.964 l 392.297
 53.964 392.426 53.854 392.426 53.069 c 392.426 48.812 l 392.426 48.093 
392.25 48.093 391.195 48.093 c 391.195 47.597 l 391.816 47.612 392.555 47.659
 393 47.659 c 393.641 47.659 394.395 47.659 395.035 47.597 c 395.035 48.093
 l 394.699 48.093 l 393.516 48.093 393.48 48.269 393.48 48.847 c 393.48 
51.292 l 393.48 52.862 394.152 54.284 395.355 54.284 c 395.465 54.284 395.496
 54.284 395.531 54.269 c 395.496 54.253 395.18 54.062 395.18 53.644 c 395.18
 53.198 395.496 52.956 395.852 52.956 c 396.137 52.956 396.539 53.147 396.539
 53.659 c 396.539 54.175 396.043 54.636 395.355 54.636 c 394.203 54.636 
393.625 53.565 393.402 52.878 c h
f
398.762 51.276 m 398.777 51.612 l 398.875 53.979 400.203 54.382 400.746
 54.382 c 402.395 54.382 402.539 52.237 402.539 51.612 c 398.777 51.612 
l 398.762 51.276 l 403.195 51.276 l 403.547 51.276 403.594 51.276 403.594
 51.612 c 403.594 53.183 402.73 54.718 400.746 54.718 c 398.906 54.718 397.434
 53.085 397.434 51.101 c 397.434 48.972 399.098 47.437 400.938 47.437 c 
402.875 47.437 403.594 49.198 403.594 49.499 c 403.594 49.659 403.465 49.694
 403.387 49.694 c 403.242 49.694 403.211 49.597 403.18 49.468 c 402.617 
47.819 401.195 47.819 401.035 47.819 c 400.234 47.819 399.594 48.3 399.242
 48.894 c 398.762 49.659 398.762 50.702 398.762 51.276 c h
f
405.816 53.069 m 405.816 48.812 l 405.816 48.093 405.641 48.093 404.586
 48.093 c 404.586 47.597 l 405.145 47.612 405.945 47.659 406.379 47.659 
c 406.793 47.659 407.625 47.612 408.168 47.597 c 408.168 48.093 l 407.098
 48.093 406.922 48.093 406.922 48.812 c 406.922 51.741 l 406.922 53.39 408.059
 54.284 409.066 54.284 c 410.074 54.284 410.25 53.421 410.25 52.511 c 410.25
 48.812 l 410.25 48.093 410.074 48.093 409 48.093 c 409 47.597 l 409.562
 47.612 410.379 47.659 410.809 47.659 c 411.227 47.659 412.043 47.612 412.586
 47.597 c 412.586 48.093 l 411.754 48.093 411.371 48.093 411.355 48.573 
c 411.355 51.612 l 411.355 52.972 411.355 53.468 410.859 54.046 c 410.633
 54.315 410.105 54.636 409.18 54.636 c 408.027 54.636 407.273 53.948 406.824
 52.956 c 406.824 54.636 l 404.586 54.46 l 404.586 53.964 l 405.691 53.964
 405.816 53.854 405.816 53.069 c h
f
414.793 51.069 m 414.793 51.421 l 414.809 51.534 l 414.809 51.644 l 414.824
 51.757 l 414.844 51.854 l 414.859 51.948 l 414.859 52.046 l 414.875 52.14
 l 414.906 52.237 l 414.922 52.331 l 414.953 52.511 l 415 52.667 l 415.066
 52.827 l 415.113 52.972 l 415.18 53.116 l 415.242 53.245 l 415.32 53.358
 l 415.387 53.468 l 415.465 53.581 l 415.547 53.679 l 415.625 53.757 l 415.723
 53.835 l 415.801 53.917 l 415.898 53.979 l 415.977 54.046 l 416.074 54.093
 l 416.152 54.14 l 416.25 54.19 l 416.348 54.222 l 416.426 54.253 l 416.523
 54.269 l 416.602 54.3 l 416.699 54.315 l 416.777 54.315 l 416.859 54.331
 l 416.938 54.331 l 417.082 54.331 418.09 54.315 418.648 53.741 c 417.992
 53.694 417.898 53.214 417.898 53.007 c 417.898 52.589 418.188 52.284 418.633
 52.284 c 419.051 52.284 419.355 52.542 419.355 53.022 c 419.355 54.108 
418.152 54.718 416.922 54.718 c 414.938 54.718 413.465 53.007 413.465 51.038
 c 413.465 49.007 415.051 47.437 416.891 47.437 c 419.02 47.437 419.531 
49.343 419.531 49.499 c 419.531 49.659 419.371 49.659 419.32 49.659 c 419.195
 49.659 419.16 49.597 419.113 49.499 c 418.664 48.015 417.625 47.819 417.035
 47.819 c 416.188 47.819 414.793 48.511 414.793 51.069 c h
f
421.785 51.276 m 421.801 51.612 l 421.898 53.979 423.227 54.382 423.77 
54.382 c 425.402 54.382 425.562 52.237 425.562 51.612 c 421.801 51.612 l
 421.785 51.276 l 426.219 51.276 l 426.57 51.276 426.617 51.276 426.617 
51.612 c 426.617 53.183 425.754 54.718 423.77 54.718 c 421.93 54.718 420.457
 53.085 420.457 51.101 c 420.457 48.972 422.121 47.437 423.961 47.437 c 
425.898 47.437 426.617 49.198 426.617 49.499 c 426.617 49.659 426.488 49.694
 426.41 49.694 c 426.266 49.694 426.234 49.597 426.203 49.468 c 425.641 
47.819 424.219 47.819 424.059 47.819 c 423.258 47.819 422.617 48.3 422.25
 48.894 c 421.785 49.659 421.785 50.702 421.785 51.276 c h
f
365.516 33.757 m 365.516 35.499 l 363.289 35.323 l 363.289 34.827 l 364.41
 34.827 364.539 34.718 364.539 33.948 c 364.539 29.679 l 364.539 28.972 
364.363 28.972 363.289 28.972 c 363.289 28.476 l 363.914 28.491 364.664 
28.526 365.113 28.526 c 365.754 28.526 366.488 28.526 367.129 28.476 c 367.129
 28.972 l 366.793 28.972 l 365.625 28.972 365.594 29.147 365.594 29.71 c
 365.594 32.175 l 365.594 33.741 366.25 35.147 367.465 35.147 c 367.578 
35.147 367.609 35.147 367.641 35.132 c 367.594 35.116 367.273 34.925 367.273
 34.511 c 367.273 34.077 367.609 33.835 367.961 33.835 c 368.25 33.835 368.648
 34.03 368.648 34.542 c 368.648 35.038 368.152 35.499 367.465 35.499 c 366.297
 35.499 365.738 34.444 365.516 33.757 c h
f
376.586 31.886 m 376.586 32.062 l 376.555 32.444 l 376.523 32.62 l 376.473
 32.796 l 376.379 33.147 l 376.312 33.323 l 376.234 33.483 l 376.168 33.644
 l 376.074 33.804 l 375.977 33.948 l 375.883 34.093 l 375.785 34.237 l 375.672
 34.366 l 375.562 34.491 l 375.305 34.749 l 375.18 34.847 l 375.035 34.956
 l 374.891 35.054 l 374.746 35.147 l 374.586 35.229 l 374.441 35.308 l 374.281
 35.374 l 374.105 35.421 l 373.945 35.483 l 373.785 35.519 l 373.434 35.581
 l 373.258 35.597 l 373.066 35.597 l 373.051 35.245 l 373.754 35.245 374.441
 34.894 374.859 34.222 c 375.273 33.534 375.273 32.604 375.273 31.995 c 
375.273 31.437 375.273 30.573 374.922 29.87 c 374.57 29.163 373.867 28.702
 373.066 28.702 c 372.395 28.702 371.691 29.038 371.258 29.772 c 370.859
 30.46 370.859 31.437 370.859 31.995 c 370.859 32.62 370.859 33.483 371.242
 34.19 c 371.672 34.909 372.426 35.245 373.051 35.245 c 373.066 35.597 l
 371.082 35.597 369.547 33.87 369.547 31.886 c 369.547 29.819 371.195 28.3
 373.051 28.3 c 374.984 28.3 376.586 29.854 376.586 31.886 c h
f
385 31.886 m 385 32.062 l 384.969 32.444 l 384.938 32.62 l 384.844 32.972
 l 384.793 33.147 l 384.73 33.323 l 384.664 33.483 l 384.586 33.644 l 384.488
 33.804 l 384.41 33.948 l 384.297 34.093 l 384.203 34.237 l 384.09 34.366
 l 383.977 34.491 l 383.852 34.62 l 383.723 34.749 l 383.594 34.847 l 383.449
 34.956 l 383.305 35.054 l 383.16 35.147 l 383 35.229 l 382.859 35.308 l
 382.699 35.374 l 382.539 35.421 l 382.363 35.483 l 382.203 35.519 l 381.852
 35.581 l 381.672 35.597 l 381.496 35.597 l 381.465 35.245 l 382.168 35.245
 382.859 34.894 383.273 34.222 c 383.691 33.534 383.691 32.604 383.691 31.995
 c 383.691 31.437 383.691 30.573 383.336 29.87 c 382.984 29.163 382.281 
28.702 381.496 28.702 c 380.809 28.702 380.105 29.038 379.672 29.772 c 379.273
 30.46 379.273 31.437 379.273 31.995 c 379.273 32.62 379.273 33.483 379.656
 34.19 c 380.09 34.909 380.844 35.245 381.465 35.245 c 381.496 35.597 l 
379.496 35.597 377.961 33.87 377.961 31.886 c 377.961 29.819 379.609 28.3
 381.465 28.3 c 383.402 28.3 385 29.854 385 31.886 c h
f
387.227 33.948 m 387.227 29.679 l 387.227 28.972 387.051 28.972 385.992
 28.972 c 385.992 28.476 l 386.555 28.491 387.355 28.526 387.785 28.526 
c 388.203 28.526 389.035 28.491 389.578 28.476 c 389.578 28.972 l 388.504
 28.972 388.328 28.972 388.328 29.679 c 388.328 32.604 l 388.328 34.269 
389.465 35.147 390.473 35.147 c 391.48 35.147 391.656 34.3 391.656 33.39
 c 391.656 29.679 l 391.656 28.972 391.48 28.972 390.41 28.972 c 390.41 
28.476 l 390.969 28.491 391.785 28.526 392.219 28.526 c 392.633 28.526 393.449
 28.491 393.992 28.476 c 393.992 28.972 l 392.938 28.972 392.762 28.972 
392.762 29.679 c 392.762 32.604 l 392.762 34.269 393.883 35.147 394.906 
35.147 c 395.914 35.147 396.09 34.3 396.09 33.39 c 396.09 29.679 l 396.09
 28.972 395.914 28.972 394.844 28.972 c 394.844 28.476 l 395.402 28.491 
396.203 28.526 396.633 28.526 c 397.051 28.526 397.883 28.491 398.426 28.476
 c 398.426 28.972 l 397.594 28.972 397.195 28.972 397.18 29.452 c 397.18
 32.476 l 397.18 33.854 397.18 34.351 396.684 34.909 c 396.457 35.183 395.945
 35.499 395.02 35.499 c 393.672 35.499 392.969 34.558 392.715 33.948 c 392.488
 35.323 391.305 35.499 390.586 35.499 c 389.434 35.499 388.684 34.812 388.234
 33.835 c 388.234 35.499 l 385.992 35.323 l 385.992 34.827 l 387.098 34.827
 387.227 34.718 387.227 33.948 c h
f
401.195 37.835 m 401.195 38.093 l 401.18 38.19 l 401.18 38.269 l 401.16
 38.351 l 401.145 38.429 l 401.129 38.511 l 401.113 38.573 l 401.082 38.651
 l 401.066 38.718 l 401.035 38.78 l 401.02 38.847 l 400.984 38.909 l 400.953
 38.972 l 400.922 39.038 l 400.859 39.132 l 400.809 39.183 l 400.777 39.229
 l 400.73 39.276 l 400.684 39.308 l 400.633 39.343 l 400.539 39.405 l 400.488
 39.437 l 400.426 39.452 l 400.379 39.468 l 400.312 39.483 l 400.25 39.499
 l 400.137 39.499 l 399.578 39.499 399.289 39.085 399.289 38.667 c 399.289
 38.253 399.562 37.819 400.137 37.819 c 400.457 37.819 400.664 37.979 400.762
 38.077 c 400.777 38.108 400.793 38.124 400.809 38.124 c 400.844 38.124 
400.844 37.901 400.844 37.835 c 400.844 37.323 400.73 36.19 399.738 35.198
 c 399.547 35.007 399.547 34.972 399.547 34.925 c 399.547 34.812 399.625
 34.749 399.707 34.749 c 399.883 34.749 401.195 35.964 401.195 37.835 c 
h
f
404.281 37.835 m 404.281 38.093 l 404.266 38.19 l 404.266 38.269 l 404.25
 38.351 l 404.234 38.429 l 404.219 38.511 l 404.203 38.573 l 404.168 38.651
 l 404.152 38.718 l 404.121 38.78 l 404.105 38.847 l 404.043 38.972 l 404.012
 39.038 l 403.977 39.085 l 403.945 39.132 l 403.898 39.183 l 403.867 39.229
 l 403.816 39.276 l 403.77 39.308 l 403.723 39.343 l 403.672 39.374 l 403.578
 39.437 l 403.516 39.452 l 403.465 39.468 l 403.402 39.483 l 403.336 39.499
 l 403.227 39.499 l 402.664 39.499 402.379 39.085 402.379 38.667 c 402.379
 38.253 402.648 37.819 403.227 37.819 c 403.547 37.819 403.754 37.979 403.852
 38.077 c 403.867 38.108 403.883 38.124 403.898 38.124 c 403.93 38.124 403.93
 37.901 403.93 37.835 c 403.93 37.323 403.816 36.19 402.824 35.198 c 402.633
 35.007 402.633 34.972 402.633 34.925 c 402.633 34.812 402.715 34.749 402.793
 34.749 c 402.969 34.749 404.281 35.964 404.281 37.835 c h
f
153.582 204.417 m 153.582 204.495 l 153.566 204.542 l 153.566 204.624 l
 153.535 204.687 l 153.535 204.733 l 153.52 204.769 l 153.488 204.831 l 
153.469 204.878 l 153.438 204.913 l 153.422 204.944 l 153.391 204.976 l 
153.375 205.007 l 153.344 205.022 l 153.309 205.054 l 153.293 205.089 l 
153.262 205.104 l 153.215 205.136 l 153.184 205.151 l 153.148 205.167 l 
153.102 205.198 l 153.07 205.214 l 153.023 205.229 l 152.992 205.229 l 152.941
 205.249 l 152.895 205.265 l 152.734 205.265 l 152.414 205.265 152.191 205.104
 152.094 205.007 c 152.078 204.976 152.062 204.96 152.047 204.96 c 152.016
 204.96 152.016 205.183 152.016 205.249 c 152.016 205.761 152.125 206.894
 153.133 207.886 c 153.328 208.081 153.328 208.112 153.328 208.159 c 153.328
 208.272 153.246 208.335 153.168 208.335 c 152.992 208.335 151.664 207.12
 151.664 205.249 c 151.664 204.304 152.047 203.585 152.734 203.585 c 153.293
 203.585 153.582 204.015 153.582 204.417 c h
f
156.672 204.417 m 156.672 204.495 l 156.656 204.542 l 156.656 204.624 l
 156.637 204.655 l 156.621 204.687 l 156.621 204.733 l 156.605 204.769 l
 156.574 204.831 l 156.559 204.878 l 156.527 204.913 l 156.512 204.944 l
 156.477 204.976 l 156.461 205.007 l 156.43 205.022 l 156.398 205.054 l 
156.383 205.089 l 156.352 205.104 l 156.301 205.136 l 156.238 205.167 l 
156.191 205.198 l 156.16 205.214 l 156.109 205.229 l 156.078 205.229 l 156.031
 205.249 l 155.98 205.265 l 155.824 205.265 l 155.504 205.265 155.277 205.104
 155.184 205.007 c 155.168 204.976 155.148 204.96 155.133 204.96 c 155.102
 204.96 155.102 205.183 155.102 205.249 c 155.102 205.761 155.215 206.894
 156.223 207.886 c 156.414 208.081 156.414 208.112 156.414 208.159 c 156.414
 208.272 156.336 208.335 156.254 208.335 c 156.078 208.335 154.75 207.12
 154.75 205.249 c 154.75 204.304 155.133 203.585 155.824 203.585 c 156.383
 203.585 156.672 204.015 156.672 204.417 c h
f
166.973 206.929 m 166.973 207.136 l 166.992 207.183 l 166.992 207.265 l
 167.008 207.296 l 167.008 207.327 l 167.039 207.39 l 167.055 207.425 l 
167.07 207.456 l 167.117 207.503 l 167.148 207.519 l 167.184 207.55 l 167.215
 207.565 l 167.23 207.565 l 167.262 207.585 l 167.277 207.585 l 167.293 
207.601 l 167.328 207.601 l 167.344 207.616 l 167.375 207.616 l 167.406 
207.632 l 167.453 207.632 l 167.488 207.647 l 167.582 207.647 l 167.629 
207.663 l 167.742 207.663 l 167.789 207.679 l 168.621 207.679 l 168.621 
208.175 l 168.062 208.128 166.879 208.128 166.27 208.128 c 165.68 208.128
 164.477 208.128 163.918 208.175 c 163.918 207.679 l 164.301 207.679 l 165.535
 207.679 165.566 207.503 165.566 206.929 c 165.566 203.214 l 160.797 203.214
 l 160.797 206.929 l 160.797 207.503 160.832 207.679 162.062 207.679 c 162.445
 207.679 l 162.445 208.175 l 161.887 208.128 160.703 208.128 160.094 208.128
 c 159.504 208.128 158.301 208.128 157.742 208.175 c 157.742 207.679 l 158.125
 207.679 l 159.359 207.679 159.391 207.503 159.391 206.929 c 159.391 198.558
 l 159.391 197.983 159.359 197.808 158.125 197.808 c 157.742 197.808 l 157.742
 197.312 l 158.301 197.374 159.488 197.374 160.078 197.374 c 160.688 197.374
 161.887 197.374 162.445 197.312 c 162.445 197.808 l 162.062 197.808 l 160.832
 197.808 160.797 197.983 160.797 198.558 c 160.797 202.718 l 165.566 202.718
 l 165.566 198.558 l 165.566 197.983 165.535 197.808 164.301 197.808 c 163.918
 197.808 l 163.918 197.312 l 164.477 197.374 165.664 197.374 166.254 197.374
 c 166.863 197.374 168.062 197.374 168.621 197.312 c 168.621 197.808 l 168.238
 197.808 l 167.008 197.808 166.973 197.983 166.973 198.558 c h
f
174.477 198.526 m 174.477 198.464 l 174.496 198.417 l 174.512 198.351 l
 174.512 198.288 l 174.527 198.222 l 174.543 198.175 l 174.574 198.112 l
 174.59 198.062 l 174.621 197.999 l 174.637 197.952 l 174.672 197.886 l 
174.734 197.792 l 174.766 197.726 l 174.797 197.679 l 174.848 197.632 l 
174.879 197.601 l 174.926 197.55 l 174.957 197.503 l 175.008 197.472 l 175.055
 197.44 l 175.117 197.39 l 175.168 197.358 l 175.215 197.343 l 175.277 197.312
 l 175.328 197.296 l 175.391 197.265 l 175.453 197.249 l 175.52 197.249 
l 175.582 197.229 l 175.645 197.229 l 175.711 197.214 l 176.047 197.214 
177.023 197.44 177.023 198.733 c 177.023 199.616 l 176.621 199.616 l 176.621
 198.733 l 176.621 197.808 176.223 197.71 176.047 197.71 c 175.52 197.71
 175.469 198.433 175.469 198.511 c 175.469 201.694 l 175.469 202.351 175.469
 202.976 174.895 203.565 c 174.27 204.19 173.469 204.433 172.703 204.433
 c 171.406 204.433 170.301 203.694 170.301 202.64 c 170.301 202.175 170.621
 201.901 171.039 201.901 c 171.488 201.901 171.773 202.206 171.773 202.624
 c 171.773 202.815 171.695 203.343 170.957 203.358 c 171.391 203.921 172.176
 204.097 172.672 204.097 c 173.453 204.097 174.367 203.472 174.367 202.062
 c 174.367 199.55 l 174.367 198.03 173.215 197.487 172.496 197.487 c 171.727
 197.487 171.07 198.046 171.07 198.847 c 171.07 199.71 171.742 201.038 174.367
 201.136 c 174.367 201.472 l 173.551 201.425 172.445 201.374 171.438 200.894
 c 170.238 200.351 169.84 199.534 169.84 198.831 c 169.84 197.534 171.391
 197.151 172.398 197.151 c 173.438 197.151 174.176 197.776 174.477 198.526
 c h
f
179.965 208.351 m 177.68 208.175 l 177.68 207.679 l 178.781 207.679 178.91
 207.565 178.91 206.8 c 178.91 198.526 l 178.91 197.808 178.734 197.808 
177.68 197.808 c 177.68 197.312 l 178.191 197.327 179.039 197.374 179.438
 197.374 c 179.84 197.374 180.621 197.327 181.199 197.312 c 181.199 197.808
 l 180.141 197.808 179.965 197.808 179.965 198.526 c h
f
184.398 208.351 m 182.094 208.175 l 182.094 207.679 l 183.215 207.679 183.344
 207.565 183.344 206.8 c 183.344 198.526 l 183.344 197.808 183.168 197.808
 182.094 197.808 c 182.094 197.312 l 182.621 197.327 183.469 197.374 183.871
 197.374 c 184.27 197.374 185.039 197.327 185.629 197.312 c 185.629 197.808
 l 184.574 197.808 184.398 197.808 184.398 198.526 c h
f
195.855 202.655 m 195.887 202.733 l 195.918 202.8 l 195.934 202.862 l 195.965
 202.929 l 196 202.991 l 196.031 203.054 l 196.078 203.104 l 196.141 203.198
 l 196.176 203.249 l 196.223 203.28 l 196.254 203.327 l 196.301 203.358 
l 196.336 203.39 l 196.383 203.425 l 196.414 203.456 l 196.461 203.487 l
 196.512 203.519 l 196.605 203.55 l 196.637 203.585 l 196.688 203.601 l 
196.781 203.632 l 196.832 203.632 l 196.879 203.647 l 196.941 203.647 l 
196.992 203.663 l 197.039 203.663 l 197.086 203.679 l 197.199 203.679 l 
197.199 204.175 l 196.848 204.144 196.383 204.128 196.031 204.128 c 195.566
 204.128 194.848 204.159 194.543 204.175 c 194.543 203.679 l 195.117 203.663
 195.469 203.374 195.469 202.913 c 195.469 202.815 195.469 202.784 195.391
 202.573 c 193.949 198.511 l 192.367 202.944 l 192.301 203.136 192.285 203.167
 192.285 203.249 c 192.285 203.679 192.91 203.679 193.23 203.679 c 193.23
 204.175 l 192.766 204.159 191.949 204.128 191.566 204.128 c 191.102 204.128
 190.637 204.144 190.16 204.175 c 190.16 203.679 l 190.75 203.679 191.008
 203.647 191.148 203.44 c 191.246 203.343 191.406 202.862 191.52 202.558
 c 190.16 198.718 l 188.637 202.96 l 188.559 203.151 188.559 203.183 188.559
 203.249 c 188.559 203.679 189.184 203.679 189.504 203.679 c 189.504 204.175
 l 189.023 204.159 188.141 204.128 187.773 204.128 c 187.711 204.128 186.863
 204.144 186.285 204.175 c 186.285 203.679 l 187.086 203.679 187.277 203.632
 187.469 203.12 c 189.469 197.487 l 189.551 197.28 189.598 197.151 189.805
 197.151 c 190.016 197.151 190.047 197.229 190.125 197.456 c 191.727 201.968
 l 193.359 197.44 l 193.422 197.28 193.469 197.151 193.68 197.151 c 193.887
 197.151 193.934 197.296 194 197.44 c h
f
202.367 198.526 m 202.383 198.464 l 202.383 198.417 l 202.398 198.351 l
 202.414 198.288 l 202.43 198.222 l 202.445 198.175 l 202.461 198.112 l 
202.477 198.062 l 202.512 197.999 l 202.527 197.952 l 202.559 197.886 l 
202.621 197.792 l 202.656 197.726 l 202.688 197.679 l 202.766 197.601 l 
202.812 197.55 l 202.863 197.503 l 202.957 197.44 l 203.008 197.39 l 203.055
 197.358 l 203.102 197.343 l 203.168 197.312 l 203.23 197.296 l 203.277 
197.265 l 203.344 197.249 l 203.406 197.249 l 203.469 197.229 l 203.535 
197.229 l 203.613 197.214 l 203.949 197.214 204.91 197.44 204.91 198.733
 c 204.91 199.616 l 204.512 199.616 l 204.512 198.733 l 204.512 197.808 
204.125 197.71 203.949 197.71 c 203.422 197.71 203.359 198.433 203.359 198.511
 c 203.359 201.694 l 203.359 202.351 203.359 202.976 202.781 203.565 c 202.16
 204.19 201.359 204.433 200.605 204.433 c 199.293 204.433 198.191 203.694
 198.191 202.64 c 198.191 202.175 198.512 201.901 198.926 201.901 c 199.375
 201.901 199.664 202.206 199.664 202.624 c 199.664 202.815 199.582 203.343
 198.848 203.358 c 199.277 203.921 200.062 204.097 200.574 204.097 c 201.344
 204.097 202.254 203.472 202.254 202.062 c 202.254 199.55 l 202.254 198.03
 201.117 197.487 200.398 197.487 c 199.613 197.487 198.957 198.046 198.957
 198.847 c 198.957 199.71 199.629 201.038 202.254 201.136 c 202.254 201.472
 l 201.438 201.425 200.336 201.374 199.328 200.894 c 198.125 200.351 197.742
 199.534 197.742 198.831 c 197.742 197.534 199.277 197.151 200.285 197.151
 c 201.328 197.151 202.062 197.776 202.367 198.526 c h
f
211.199 202.655 m 211.215 202.702 l 211.23 202.753 l 211.262 202.8 l 211.277
 202.831 l 211.293 202.878 l 211.328 202.913 l 211.344 202.96 l 211.375 
202.991 l 211.422 203.054 l 211.469 203.12 l 211.52 203.183 l 211.566 203.249
 l 211.613 203.296 l 211.68 203.343 l 211.727 203.374 l 211.773 203.425 
l 211.84 203.456 l 211.887 203.487 l 211.949 203.519 l 212 203.55 l 212.047
 203.565 l 212.109 203.585 l 212.16 203.601 l 212.301 203.647 l 212.352 
203.647 l 212.398 203.663 l 212.477 203.663 l 212.527 203.679 l 212.672 
203.679 l 212.672 204.175 l 212.32 204.144 211.855 204.128 211.488 204.128
 c 211.199 204.128 210.445 204.159 210.094 204.175 c 210.094 203.679 l 210.59
 203.663 210.848 203.39 210.848 202.991 c 210.848 202.831 210.832 202.8 
210.75 202.608 c 209.133 198.702 l 207.375 202.976 l 207.309 203.136 207.277
 203.198 207.277 203.265 c 207.277 203.679 207.871 203.679 208.176 203.679
 c 208.176 204.175 l 207.758 204.159 206.703 204.128 206.43 204.128 c 206.016
 204.128 205.375 204.144 204.895 204.175 c 204.895 203.679 l 205.664 203.679
 205.965 203.679 206.191 203.12 c 208.574 197.312 l 208.496 197.12 208.27
 196.593 208.176 196.382 c 207.824 195.503 207.375 194.417 206.352 194.417
 c 206.285 194.417 205.918 194.417 205.613 194.702 c 206.094 194.769 206.238
 195.104 206.238 195.358 c 206.238 195.776 205.934 196.03 205.566 196.03
 c 205.246 196.03 204.895 195.823 204.895 195.343 c 204.895 194.64 205.566
 194.062 206.352 194.062 c 207.359 194.062 208.016 194.976 208.398 195.87
 c h
f
215.438 206.687 m 215.438 206.862 l 215.422 206.944 l 215.422 207.022 l
 215.406 207.104 l 215.406 207.183 l 215.391 207.265 l 215.375 207.343 l
 215.359 207.425 l 215.328 207.487 l 215.309 207.565 l 215.277 207.632 l
 215.262 207.694 l 215.23 207.761 l 215.199 207.823 l 215.168 207.87 l 215.133
 207.937 l 215.086 207.983 l 215.055 208.03 l 215.008 208.081 l 214.973 
208.112 l 214.926 208.159 l 214.832 208.222 l 214.781 208.257 l 214.719 
208.272 l 214.672 208.304 l 214.621 208.319 l 214.559 208.335 l 214.496 
208.335 l 214.43 208.351 l 214.367 208.351 l 213.824 208.351 213.535 207.921
 213.535 207.503 c 213.535 207.089 213.805 206.671 214.367 206.671 c 214.688
 206.671 214.91 206.815 215.008 206.913 c 215.023 206.96 215.039 206.976
 215.055 206.976 c 215.086 206.976 215.086 206.753 215.086 206.687 c 215.086
 206.175 214.973 205.022 213.98 204.046 c 213.789 203.854 213.789 203.823
 213.789 203.776 c 213.789 203.663 213.871 203.601 213.934 203.601 c 214.125
 203.601 215.438 204.8 215.438 206.687 c h
f
218.527 206.687 m 218.527 206.862 l 218.512 206.944 l 218.512 207.022 l
 218.496 207.104 l 218.496 207.183 l 218.477 207.265 l 218.461 207.343 l
 218.445 207.425 l 218.414 207.487 l 218.398 207.565 l 218.367 207.632 l
 218.352 207.694 l 218.32 207.761 l 218.285 207.823 l 218.254 207.87 l 218.223
 207.937 l 218.176 207.983 l 218.141 208.03 l 218.094 208.081 l 218.016 
208.159 l 217.965 208.19 l 217.918 208.222 l 217.871 208.257 l 217.805 208.272
 l 217.758 208.304 l 217.711 208.319 l 217.645 208.335 l 217.582 208.335
 l 217.52 208.351 l 217.453 208.351 l 216.91 208.351 216.621 207.921 216.621
 207.503 c 216.621 207.089 216.895 206.671 217.453 206.671 c 217.773 206.671
 218 206.815 218.094 206.913 c 218.109 206.96 218.125 206.976 218.141 206.976
 c 218.176 206.976 218.176 206.753 218.176 206.687 c 218.176 206.175 218.062
 205.022 217.07 204.046 c 216.879 203.854 216.879 203.823 216.879 203.776
 c 216.879 203.663 216.957 203.601 217.039 203.601 c 217.199 203.601 218.527
 204.8 218.527 206.687 c h
f
83.602 103.409 m 83.52 103.409 l 83.473 103.394 l 83.395 103.394 l 83.359
 103.378 l 83.328 103.362 l 83.281 103.362 l 83.25 103.347 l 83.215 103.331
 l 83.184 103.312 l 83.137 103.296 l 83.105 103.265 l 83.074 103.249 l 83.039
 103.218 l 83.008 103.202 l 82.992 103.171 l 82.961 103.136 l 82.93 103.12
 l 82.914 103.089 l 82.879 103.042 l 82.863 103.011 l 82.848 102.976 l 82.816
 102.929 l 82.801 102.897 l 82.785 102.851 l 82.785 102.819 l 82.77 102.769
 l 82.754 102.722 l 82.754 102.562 l 82.754 102.241 82.914 102.019 83.008
 101.921 c 83.039 101.905 83.059 101.89 83.059 101.874 c 83.059 101.843 
82.832 101.843 82.77 101.843 c 82.258 101.843 81.121 101.952 80.129 102.96
 c 79.938 103.155 79.906 103.155 79.855 103.155 c 79.746 103.155 79.68 103.073
 79.68 102.995 c 79.68 102.819 80.898 101.491 82.77 101.491 c 83.711 101.491
 84.434 101.874 84.434 102.562 c 84.434 103.12 84 103.409 83.602 103.409
 c h
f
83.602 106.499 m 83.52 106.499 l 83.473 106.479 l 83.395 106.479 l 83.359
 106.464 l 83.328 106.448 l 83.281 106.448 l 83.25 106.433 l 83.215 106.417
 l 83.184 106.401 l 83.137 106.386 l 83.105 106.354 l 83.074 106.339 l 83.039
 106.304 l 83.008 106.288 l 82.992 106.257 l 82.961 106.226 l 82.93 106.21
 l 82.914 106.179 l 82.879 106.128 l 82.848 106.065 l 82.816 106.019 l 82.801
 105.987 l 82.785 105.937 l 82.785 105.905 l 82.77 105.858 l 82.754 105.808
 l 82.754 105.651 l 82.754 105.331 82.914 105.104 83.008 105.011 c 83.039
 104.995 83.059 104.976 83.059 104.96 c 83.059 104.929 82.832 104.929 82.77
 104.929 c 82.258 104.929 81.121 105.042 80.129 106.05 c 79.938 106.241 
79.906 106.241 79.855 106.241 c 79.746 106.241 79.68 106.163 79.68 106.081
 c 79.68 105.905 80.898 104.577 82.77 104.577 c 83.711 104.577 84.434 104.96
 84.434 105.651 c 84.434 106.21 84 106.499 83.602 106.499 c h
f
81.09 116.8 m 80.879 116.8 l 80.832 116.819 l 80.754 116.819 l 80.719 116.835
 l 80.688 116.835 l 80.562 116.897 l 80.543 116.913 l 80.512 116.944 l 80.496
 116.976 l 80.465 117.011 l 80.449 117.042 l 80.449 117.058 l 80.434 117.089
 l 80.434 117.104 l 80.418 117.12 l 80.418 117.155 l 80.402 117.171 l 80.402
 117.202 l 80.383 117.233 l 80.383 117.28 l 80.367 117.312 l 80.367 117.409
 l 80.352 117.456 l 80.352 117.569 l 80.336 117.616 l 80.336 118.448 l 79.84
 118.448 l 79.887 117.89 79.887 116.706 79.887 116.097 c 79.887 115.507 
79.887 114.304 79.84 113.745 c 80.336 113.745 l 80.336 114.128 l 80.336 
115.362 80.512 115.394 81.09 115.394 c 84.801 115.394 l 84.801 110.624 l
 81.09 110.624 l 80.512 110.624 80.336 110.659 80.336 111.89 c 80.336 112.272
 l 79.84 112.272 l 79.887 111.714 79.887 110.53 79.887 109.921 c 79.887 
109.331 79.887 108.128 79.84 107.569 c 80.336 107.569 l 80.336 107.952 l
 80.336 109.187 80.512 109.218 81.09 109.218 c 89.457 109.218 l 90.031 109.218
 90.207 109.187 90.207 107.952 c 90.207 107.569 l 90.703 107.569 l 90.641
 108.128 90.641 109.312 90.641 109.905 c 90.641 110.515 90.641 111.714 90.703
 112.272 c 90.207 112.272 l 90.207 111.89 l 90.207 110.659 90.031 110.624
 89.457 110.624 c 85.297 110.624 l 85.297 115.394 l 89.457 115.394 l 90.031
 115.394 90.207 115.362 90.207 114.128 c 90.207 113.745 l 90.703 113.745
 l 90.641 114.304 90.641 115.491 90.641 116.081 c 90.641 116.69 90.641 117.89
 90.703 118.448 c 90.207 118.448 l 90.207 118.065 l 90.207 116.835 90.031
 116.8 89.457 116.8 c h
f
89.488 124.304 m 89.551 124.304 l 89.602 124.323 l 89.664 124.339 l 89.73
 124.339 l 89.793 124.354 l 89.84 124.37 l 89.906 124.401 l 89.953 124.417
 l 90.016 124.448 l 90.066 124.464 l 90.129 124.499 l 90.176 124.53 l 90.227
 124.562 l 90.289 124.593 l 90.336 124.624 l 90.383 124.675 l 90.418 124.706
 l 90.465 124.753 l 90.512 124.784 l 90.543 124.835 l 90.625 124.944 l 90.656
 124.995 l 90.672 125.042 l 90.703 125.104 l 90.719 125.155 l 90.754 125.218
 l 90.77 125.28 l 90.77 125.347 l 90.785 125.409 l 90.785 125.472 l 90.801
 125.538 l 90.801 125.874 90.578 126.851 89.281 126.851 c 88.402 126.851
 l 88.402 126.448 l 89.281 126.448 l 90.207 126.448 90.305 126.05 90.305
 125.874 c 90.305 125.347 89.586 125.296 89.504 125.296 c 86.32 125.296 
l 85.664 125.296 85.039 125.296 84.449 124.722 c 83.824 124.097 83.586 123.296
 83.586 122.53 c 83.586 121.233 84.32 120.128 85.375 120.128 c 85.84 120.128
 86.113 120.448 86.113 120.866 c 86.113 121.312 85.809 121.601 85.395 121.601
 c 85.199 121.601 84.672 121.522 84.656 120.784 c 84.098 121.218 83.922 
122.003 83.922 122.499 c 83.922 123.28 84.543 124.194 85.953 124.194 c 88.465
 124.194 l 89.984 124.194 90.527 123.042 90.527 122.323 c 90.527 121.554
 89.969 120.897 89.168 120.897 c 88.305 120.897 86.977 121.569 86.879 124.194
 c 86.543 124.194 l 86.594 123.378 86.641 122.272 87.121 121.265 c 87.664
 120.065 88.48 119.667 89.184 119.667 c 90.48 119.667 90.863 121.218 90.863
 122.226 c 90.863 123.265 90.242 124.003 89.488 124.304 c h
f
79.664 129.792 m 79.84 127.507 l 80.336 127.507 l 80.336 128.608 80.449
 128.737 81.215 128.737 c 89.488 128.737 l 90.207 128.737 90.207 128.562
 90.207 127.507 c 90.703 127.507 l 90.688 128.019 90.641 128.866 90.641 
129.265 c 90.641 129.667 90.688 130.448 90.703 131.026 c 90.207 131.026 
l 90.207 129.968 90.207 129.792 89.488 129.792 c h
f
79.664 134.226 m 79.84 131.921 l 80.336 131.921 l 80.336 133.042 80.449
 133.171 81.215 133.171 c 89.488 133.171 l 90.207 133.171 90.207 132.995
 90.207 131.921 c 90.703 131.921 l 90.688 132.448 90.641 133.296 90.641 
133.698 c 90.641 134.097 90.688 134.866 90.703 135.456 c 90.207 135.456 
l 90.207 134.401 90.207 134.226 89.488 134.226 c h
f
85.359 145.683 m 85.281 145.714 l 85.215 145.745 l 85.152 145.761 l 85.09
 145.792 l 85.023 145.827 l 84.961 145.858 l 84.914 145.905 l 84.863 145.937
 l 84.816 145.968 l 84.77 146.003 l 84.738 146.05 l 84.688 146.081 l 84.656
 146.128 l 84.625 146.163 l 84.594 146.21 l 84.562 146.241 l 84.527 146.288
 l 84.496 146.339 l 84.465 146.433 l 84.434 146.464 l 84.418 146.515 l 84.402
 146.562 l 84.383 146.608 l 84.383 146.659 l 84.367 146.706 l 84.367 146.769
 l 84.352 146.819 l 84.352 146.866 l 84.336 146.913 l 84.336 147.026 l 83.84
 147.026 l 83.871 146.675 83.887 146.21 83.887 145.858 c 83.887 145.394 
83.855 144.675 83.84 144.37 c 84.336 144.37 l 84.352 144.944 84.641 145.296
 85.105 145.296 c 85.199 145.296 85.234 145.296 85.441 145.218 c 89.504 
143.776 l 85.074 142.194 l 84.879 142.128 84.848 142.112 84.77 142.112 c
 84.336 142.112 84.336 142.737 84.336 143.058 c 83.84 143.058 l 83.855 142.593
 83.887 141.776 83.887 141.394 c 83.887 140.929 83.871 140.464 83.84 139.987
 c 84.336 139.987 l 84.336 140.577 84.367 140.835 84.578 140.976 c 84.672
 141.073 85.152 141.233 85.457 141.347 c 89.297 139.987 l 85.059 138.464
 l 84.863 138.386 84.832 138.386 84.77 138.386 c 84.336 138.386 84.336 139.011
 84.336 139.331 c 83.84 139.331 l 83.855 138.851 83.887 137.968 83.887 137.601
 c 83.887 137.538 83.871 136.69 83.84 136.112 c 84.336 136.112 l 84.336 
136.913 84.383 137.104 84.898 137.296 c 90.527 139.296 l 90.738 139.378 
90.863 139.425 90.863 139.632 c 90.863 139.843 90.785 139.874 90.562 139.952
 c 86.047 141.554 l 90.578 143.187 l 90.738 143.249 90.863 143.296 90.863
 143.507 c 90.863 143.714 90.719 143.761 90.578 143.827 c h
f
89.488 152.194 m 89.551 152.21 l 89.602 152.21 l 89.664 152.226 l 89.73
 152.241 l 89.793 152.257 l 89.84 152.272 l 89.906 152.288 l 89.953 152.304
 l 90.016 152.339 l 90.066 152.354 l 90.129 152.386 l 90.176 152.417 l 90.227
 152.448 l 90.289 152.479 l 90.336 152.515 l 90.383 152.562 l 90.418 152.593
 l 90.465 152.64 l 90.512 152.69 l 90.543 152.737 l 90.578 152.784 l 90.625
 152.835 l 90.656 152.882 l 90.672 152.929 l 90.703 152.995 l 90.719 153.058
 l 90.754 153.104 l 90.77 153.171 l 90.77 153.233 l 90.785 153.296 l 90.785
 153.362 l 90.801 153.44 l 90.801 153.776 90.578 154.737 89.281 154.737 
c 88.402 154.737 l 88.402 154.339 l 89.281 154.339 l 90.207 154.339 90.305
 153.952 90.305 153.776 c 90.305 153.249 89.586 153.187 89.504 153.187 c
 86.32 153.187 l 85.664 153.187 85.039 153.187 84.449 152.608 c 83.824 151.987
 83.586 151.187 83.586 150.433 c 83.586 149.12 84.32 148.019 85.375 148.019
 c 85.84 148.019 86.113 148.339 86.113 148.753 c 86.113 149.202 85.809 149.491
 85.395 149.491 c 85.199 149.491 84.672 149.409 84.656 148.675 c 84.098 
149.104 83.922 149.89 83.922 150.401 c 83.922 151.171 84.543 152.081 85.953
 152.081 c 88.465 152.081 l 89.984 152.081 90.527 150.944 90.527 150.226
 c 90.527 149.44 89.969 148.784 89.168 148.784 c 88.305 148.784 86.977 149.456
 86.879 152.081 c 86.543 152.081 l 86.594 151.265 86.641 150.163 87.121 
149.155 c 87.664 147.952 88.48 147.569 89.184 147.569 c 90.48 147.569 90.863
 149.104 90.863 150.112 c 90.863 151.155 90.242 151.89 89.488 152.194 c 
h
f
85.359 161.026 m 85.266 161.058 l 85.215 161.089 l 85.184 161.104 l 85.137
 161.12 l 85.105 161.155 l 85.059 161.171 l 85.023 161.202 l 84.898 161.296
 l 84.832 161.347 l 84.77 161.394 l 84.719 161.44 l 84.672 161.507 l 84.641
 161.554 l 84.594 161.601 l 84.562 161.667 l 84.527 161.714 l 84.496 161.776
 l 84.465 161.827 l 84.449 161.874 l 84.434 161.937 l 84.418 161.987 l 84.402
 162.034 l 84.383 162.081 l 84.367 162.128 l 84.367 162.179 l 84.352 162.226
 l 84.352 162.304 l 84.336 162.354 l 84.336 162.499 l 83.84 162.499 l 83.871
 162.144 83.887 161.683 83.887 161.312 c 83.887 161.026 83.855 160.272 83.84
 159.921 c 84.336 159.921 l 84.352 160.417 84.625 160.675 85.023 160.675
 c 85.184 160.675 85.215 160.659 85.41 160.577 c 89.312 158.96 l 85.039 
157.202 l 84.879 157.136 84.816 157.104 84.754 157.104 c 84.336 157.104 
84.336 157.698 84.336 158.003 c 83.84 158.003 l 83.855 157.585 83.887 156.53
 83.887 156.257 c 83.887 155.843 83.871 155.202 83.84 154.722 c 84.336 154.722
 l 84.336 155.491 84.336 155.792 84.898 156.019 c 90.703 158.401 l 90.898
 158.323 91.426 158.097 91.633 158.003 c 92.512 157.651 93.602 157.202 93.602
 156.179 c 93.602 156.112 93.602 155.745 93.312 155.44 c 93.25 155.921 92.914
 156.065 92.656 156.065 c 92.242 156.065 91.984 155.761 91.984 155.394 c
 91.984 155.073 92.191 154.722 92.672 154.722 c 93.375 154.722 93.953 155.394
 93.953 156.179 c 93.953 157.187 93.039 157.843 92.145 158.226 c h
f
81.328 165.265 m 81.152 165.265 l 81.074 165.249 l 80.992 165.249 l 80.914
 165.233 l 80.832 165.233 l 80.754 165.218 l 80.672 165.202 l 80.594 165.187
 l 80.527 165.155 l 80.449 165.136 l 80.383 165.104 l 80.32 165.089 l 80.258
 165.058 l 80.191 165.026 l 80.145 164.995 l 80.082 164.96 l 80.031 164.913
 l 79.984 164.882 l 79.938 164.835 l 79.906 164.8 l 79.855 164.753 l 79.793
 164.659 l 79.762 164.608 l 79.746 164.546 l 79.711 164.499 l 79.695 164.448
 l 79.68 164.386 l 79.68 164.323 l 79.664 164.257 l 79.664 164.194 l 79.664
 163.651 80.098 163.362 80.512 163.362 c 80.93 163.362 81.344 163.632 81.344
 164.194 c 81.344 164.515 81.199 164.737 81.105 164.835 c 81.059 164.851
 81.039 164.866 81.039 164.882 c 81.039 164.913 81.266 164.913 81.328 164.913
 c 81.84 164.913 82.992 164.8 83.969 163.808 c 84.16 163.616 84.191 163.616
 84.242 163.616 c 84.352 163.616 84.418 163.698 84.418 163.761 c 84.418 
163.952 83.215 165.265 81.328 165.265 c h
f
81.328 168.354 m 81.152 168.354 l 81.074 168.339 l 80.992 168.339 l 80.914
 168.323 l 80.832 168.323 l 80.754 168.304 l 80.672 168.288 l 80.594 168.272
 l 80.527 168.241 l 80.449 168.226 l 80.383 168.194 l 80.32 168.179 l 80.258
 168.144 l 80.191 168.112 l 80.145 168.081 l 80.082 168.05 l 80.031 168.003
 l 79.984 167.968 l 79.906 167.89 l 79.855 167.843 l 79.824 167.792 l 79.762
 167.698 l 79.746 167.632 l 79.711 167.585 l 79.695 167.538 l 79.68 167.472
 l 79.68 167.409 l 79.664 167.347 l 79.664 167.28 l 79.664 166.737 80.098
 166.448 80.512 166.448 c 80.93 166.448 81.344 166.722 81.344 167.28 c 81.344
 167.601 81.199 167.827 81.105 167.921 c 81.059 167.937 81.039 167.952 81.039
 167.968 c 81.039 168.003 81.266 168.003 81.328 168.003 c 81.84 168.003 
82.992 167.89 83.969 166.897 c 84.16 166.706 84.191 166.706 84.242 166.706
 c 84.352 166.706 84.418 166.784 84.418 166.866 c 84.418 167.026 83.215 
168.354 81.328 168.354 c h
f
Q Q
showpage
%%Trailer
end restore
%%EOF
