<?xml version="1.0" encoding="UTF-8" standalone="no"?>
<!-- Created with Inkscape (http://www.inkscape.org/) -->

<svg
   xmlns:dc="http://purl.org/dc/elements/1.1/"
   xmlns:cc="http://creativecommons.org/ns#"
   xmlns:rdf="http://www.w3.org/1999/02/22-rdf-syntax-ns#"
   xmlns:svg="http://www.w3.org/2000/svg"
   xmlns="http://www.w3.org/2000/svg"
   xmlns:sodipodi="http://sodipodi.sourceforge.net/DTD/sodipodi-0.dtd"
   xmlns:inkscape="http://www.inkscape.org/namespaces/inkscape"
   width="744.09448819"
   height="1052.3622047"
   id="svg2"
   version="1.1"
   inkscape:version="0.48.2 r9819"
   sodipodi:docname="New document 1">
  <defs
     id="defs4" />
  <sodipodi:namedview
     id="base"
     pagecolor="#ffffff"
     bordercolor="#666666"
     borderopacity="1.0"
     inkscape:pageopacity="0.0"
     inkscape:pageshadow="2"
     inkscape:zoom="1.979899"
     inkscape:cx="363.6843"
     inkscape:cy="579.40336"
     inkscape:document-units="px"
     inkscape:current-layer="layer1"
     showgrid="false"
     inkscape:window-width="1605"
     inkscape:window-height="800"
     inkscape:window-x="356"
     inkscape:window-y="159"
     inkscape:window-maximized="0"
     inkscape:snap-global="false" />
  <metadata
     id="metadata7">
    <rdf:RDF>
      <cc:Work
         rdf:about="">
        <dc:format>image/svg+xml</dc:format>
        <dc:type
           rdf:resource="http://purl.org/dc/dcmitype/StillImage" />
        <dc:title></dc:title>
      </cc:Work>
    </rdf:RDF>
  </metadata>
  <g
     inkscape:label="Layer 1"
     inkscape:groupmode="layer"
     id="layer1">
    <flowRoot
       xml:space="preserve"
       id="flowRoot2985"
       style="font-size:48px;font-style:normal;font-variant:normal;font-weight:normal;font-stretch:normal;line-height:125%;letter-spacing:0px;word-spacing:0px;fill:#000000;fill-opacity:1;stroke:none;font-family:Sans;-inkscape-font-specification:Helvetica"><flowRegion
         id="flowRegion2987"><rect
           id="rect2989"
           width="112.12693"
           height="62.629459"
           x="194.95944"
           y="438.18942" /></flowRegion><flowPara
         id="flowPara2991">Laba</flowPara></flowRoot>    <path
       sodipodi:type="arc"
       style="fill:none;stroke:#ffffff;stroke-width:3;stroke-linecap:butt;stroke-miterlimit:4;stroke-opacity:1;stroke-dasharray:none"
       id="path3035"
       sodipodi:cx="294.45947"
       sodipodi:cy="454.85696"
       sodipodi:rx="59.093925"
       sodipodi:ry="29.7995"
       d="m 353.5534,454.85696 a 59.093925,29.7995 0 1 1 -118.18785,0 59.093925,29.7995 0 1 1 118.18785,0 z" />
    <path
       sodipodi:type="arc"
       style="fill:none;stroke:#ffffff;stroke-width:3;stroke-linecap:butt;stroke-miterlimit:4;stroke-opacity:1;stroke-dasharray:none"
       id="path3037"
       sodipodi:cx="136.37059"
       sodipodi:cy="444.75543"
       sodipodi:rx="24.243662"
       sodipodi:ry="17.67767"
       d="m 160.61425,444.75543 a 24.243662,17.67767 0 1 1 -48.48732,0 24.243662,17.67767 0 1 1 48.48732,0 z" />
    <flowRoot
       xml:space="preserve"
       id="flowRoot3001"
       style="font-size:12px;font-style:normal;font-variant:normal;font-weight:normal;font-stretch:normal;line-height:125%;letter-spacing:0px;word-spacing:0px;fill:#000000;fill-opacity:1;stroke:none;font-family:Sans;-inkscape-font-specification:Helvetica"
       transform="translate(-46.993478,75.413888)"><flowRegion
         id="flowRegion3003"><rect
           id="rect3005"
           width="83.842659"
           height="52.527931"
           x="251.52798"
           y="434.14883" /></flowRegion><flowPara
         id="flowPara3007"
         style="text-align:center;text-anchor:middle">Conference</flowPara><flowPara
         id="flowPara3009"
         style="text-align:center;text-anchor:middle">Room</flowPara></flowRoot>    <path
       sodipodi:type="arc"
       style="fill:none;stroke:#000000;stroke-width:1;stroke-linecap:butt;stroke-miterlimit:4;stroke-opacity:1;stroke-dasharray:none"
       id="path3039"
       sodipodi:cx="232.84016"
       sodipodi:cy="649.81641"
       sodipodi:rx="99.500023"
       sodipodi:ry="51.012703"
       d="m 332.34019,649.81641 a 99.500023,51.012703 0 1 1 -199.00005,0 99.500023,51.012703 0 1 1 199.00005,0 z"
       transform="matrix(0.43933654,0,0,0.45098318,144.18203,231.50123)" />
    <flowRoot
       xml:space="preserve"
       id="flowRoot2993"
       style="font-size:12px;font-style:normal;font-variant:normal;font-weight:normal;font-stretch:normal;line-height:125%;letter-spacing:0px;word-spacing:0px;fill:#000000;fill-opacity:1;stroke:none;font-family:Sans;-inkscape-font-specification:Helvetica"
       transform="translate(49.349358,-15.719206)"><flowRegion
         id="flowRegion2995"><rect
           id="rect2997"
           width="179.80716"
           height="116.16754"
           x="192.93913"
           y="385.6615" /></flowRegion><flowPara
         id="flowPara2999">Lab</flowPara></flowRoot>    <path
       transform="matrix(0.43933654,0,0,0.45098318,151.08053,84.368132)"
       d="m 332.34019,649.81641 a 99.500023,51.012703 0 1 1 -199.00005,0 99.500023,51.012703 0 1 1 199.00005,0 z"
       sodipodi:ry="51.012703"
       sodipodi:rx="99.500023"
       sodipodi:cy="649.81641"
       sodipodi:cx="232.84016"
       id="path3831"
       style="fill:none;stroke:#000000;stroke-width:1;stroke-linecap:butt;stroke-miterlimit:4;stroke-opacity:1;stroke-dasharray:none"
       sodipodi:type="arc" />
    <flowRoot
       xml:space="preserve"
       id="flowRoot3019"
       style="font-size:12px;font-style:normal;font-variant:normal;font-weight:normal;font-stretch:normal;line-height:125%;letter-spacing:0px;word-spacing:0px;fill:#000000;fill-opacity:1;stroke:none;font-family:Sans;-inkscape-font-specification:Helvetica"
       transform="translate(0.78939148,-0.02735081)"><flowRegion
         id="flowRegion3021"><rect
           id="rect3023"
           width="69.700523"
           height="29.294424"
           x="372.74628"
           y="367.47876" /></flowRegion><flowPara
         id="flowPara3025">Office</flowPara></flowRoot>    <path
       sodipodi:type="arc"
       style="fill:none;stroke:#000000;stroke-width:1;stroke-linecap:butt;stroke-miterlimit:4;stroke-opacity:1;stroke-dasharray:none"
       id="path3833"
       sodipodi:cx="232.84016"
       sodipodi:cy="649.81641"
       sodipodi:rx="99.500023"
       sodipodi:ry="51.012703"
       d="m 332.34019,649.81641 a 99.500023,51.012703 0 1 1 -199.00005,0 99.500023,51.012703 0 1 1 199.00005,0 z"
       transform="matrix(0.43933654,0,0,0.45098318,288.86334,81.872487)" />
    <flowRoot
       xml:space="preserve"
       id="flowRoot3027"
       style="font-size:12px;font-style:normal;font-variant:normal;font-weight:normal;font-stretch:normal;line-height:125%;letter-spacing:0px;word-spacing:0px;fill:#000000;fill-opacity:1;stroke:none;font-family:Sans;-inkscape-font-specification:Helvetica"
       transform="translate(-139.9981,-11.303994)"><flowRegion
         id="flowRegion3029"><rect
           id="rect3031"
           width="82.832512"
           height="53.538086"
           x="399.01025"
           y="453.34174" /></flowRegion><flowPara
         id="flowPara3033">Hallway</flowPara></flowRoot>    <path
       transform="matrix(0.43933654,0,0,0.45098318,180.77702,157.63393)"
       d="m 332.34019,649.81641 a 99.500023,51.012703 0 1 1 -199.00005,0 99.500023,51.012703 0 1 1 199.00005,0 z"
       sodipodi:ry="51.012703"
       sodipodi:rx="99.500023"
       sodipodi:cy="649.81641"
       sodipodi:cx="232.84016"
       id="path3835"
       style="fill:none;stroke:#000000;stroke-width:1;stroke-linecap:butt;stroke-miterlimit:4;stroke-opacity:1;stroke-dasharray:none"
       sodipodi:type="arc" />
    <flowRoot
       xml:space="preserve"
       id="flowRoot3011"
       style="font-size:12px;font-style:normal;font-variant:normal;font-weight:normal;font-stretch:normal;line-height:125%;letter-spacing:0px;word-spacing:0px;fill:#000000;fill-opacity:1;stroke:none;font-family:Sans;-inkscape-font-specification:Helvetica"
       transform="translate(-72.925599,-116.71943)"><flowRegion
         id="flowRegion3013"><rect
           id="rect3015"
           width="82.832512"
           height="33.335033"
           x="214.15234"
           y="561.42804" /></flowRegion><flowPara
         id="flowPara3017">Kitchen</flowPara></flowRoot>    <path
       sodipodi:type="arc"
       style="fill:none;stroke:#000000;stroke-width:1;stroke-linecap:butt;stroke-miterlimit:4;stroke-opacity:1;stroke-dasharray:none"
       id="path3837"
       sodipodi:cx="232.84016"
       sodipodi:cy="649.81641"
       sodipodi:rx="99.500023"
       sodipodi:ry="51.012703"
       d="m 332.34019,649.81641 a 99.500023,51.012703 0 1 1 -199.00005,0 99.500023,51.012703 0 1 1 199.00005,0 z"
       transform="matrix(0.43933654,0,0,0.45098318,61.579014,159.14916)" />
    <path
       style="fill:none;stroke:#000000;stroke-width:1px;stroke-linecap:butt;stroke-linejoin:miter;stroke-opacity:1"
       d="m 347.46991,375.72008 -50.40557,0.91299"
       id="path3911"
       inkscape:connector-type="polyline"
       inkscape:connector-curvature="0"
       inkscape:connection-start="#path3833"
       inkscape:connection-start-point="d4"
       inkscape:connection-end="#path3831"
       inkscape:connection-end-point="d4" />
    <path
       style="fill:none;stroke:#000000;stroke-width:1px;stroke-linecap:butt;stroke-linejoin:miter;stroke-opacity:1"
       d="m 262.49728,399.92868 11.45337,28.25724"
       id="path3913"
       inkscape:connector-type="polyline"
       inkscape:connector-curvature="0"
       inkscape:connection-start="#path3831"
       inkscape:connection-start-point="d4"
       inkscape:connection-end="#path3835"
       inkscape:connection-end-point="d4" />
    <path
       style="fill:none;stroke:#000000;stroke-width:1px;stroke-linecap:butt;stroke-linejoin:miter;stroke-opacity:1"
       d="m 239.37071,451.24573 -31.795,0.40417"
       id="path3915"
       inkscape:connector-type="polyline"
       inkscape:connector-curvature="0"
       inkscape:connection-start="#path3835"
       inkscape:connection-start-point="d4"
       inkscape:connection-end="#path3837"
       inkscape:connection-end-point="d4" />
    <path
       style="fill:none;stroke:#000000;stroke-width:1px;stroke-linecap:butt;stroke-linejoin:miter;stroke-opacity:1"
       d="m 257.50867,502.29043 14.5321,-29.33316"
       id="path3917"
       inkscape:connector-type="polyline"
       inkscape:connector-curvature="0"
       inkscape:connection-start="#path3039"
       inkscape:connection-start-point="d4"
       inkscape:connection-end="#path3835"
       inkscape:connection-end-point="d4" />
  </g>
</svg>
