%!PS-Adobe-3.0 EPSF-3.0
%%Creator: cairo 1.10.2 (http://cairographics.org)
%%CreationDate: Thu Apr 12 15:36:11 2012
%%Pages: 1
%%BoundingBox: 0 -1 260 157
%%DocumentData: Clean7Bit
%%LanguageLevel: 2
%%EndComments
%%BeginProlog
/cairo_eps_state save def
/dict_count countdictstack def
/op_count count 1 sub def
userdict begin
/q { gsave } bind def
/Q { grestore } bind def
/cm { 6 array astore concat } bind def
/w { setlinewidth } bind def
/J { setlinecap } bind def
/j { setlinejoin } bind def
/M { setmiterlimit } bind def
/d { setdash } bind def
/m { moveto } bind def
/l { lineto } bind def
/c { curveto } bind def
/h { closepath } bind def
/re { exch dup neg 3 1 roll 5 3 roll moveto 0 rlineto
      0 exch rlineto 0 rlineto closepath } bind def
/S { stroke } bind def
/f { fill } bind def
/f* { eofill } bind def
/n { newpath } bind def
/W { clip } bind def
/W* { eoclip } bind def
/BT { } bind def
/ET { } bind def
/pdfmark where { pop globaldict /?pdfmark /exec load put }
    { globaldict begin /?pdfmark /pop load def /pdfmark
    /cleartomark load def end } ifelse
/BDC { mark 3 1 roll /BDC pdfmark } bind def
/EMC { mark /EMC pdfmark } bind def
/cairo_store_point { /cairo_point_y exch def /cairo_point_x exch def } def
/Tj { show currentpoint cairo_store_point } bind def
/TJ {
  {
    dup
    type /stringtype eq
    { show } { -0.001 mul 0 cairo_font_matrix dtransform rmoveto } ifelse
  } forall
  currentpoint cairo_store_point
} bind def
/cairo_selectfont { cairo_font_matrix aload pop pop pop 0 0 6 array astore
    cairo_font exch selectfont cairo_point_x cairo_point_y moveto } bind def
/Tf { pop /cairo_font exch def /cairo_font_matrix where
      { pop cairo_selectfont } if } bind def
/Td { matrix translate cairo_font_matrix matrix concatmatrix dup
      /cairo_font_matrix exch def dup 4 get exch 5 get cairo_store_point
      /cairo_font where { pop cairo_selectfont } if } bind def
/Tm { 2 copy 8 2 roll 6 array astore /cairo_font_matrix exch def
      cairo_store_point /cairo_font where { pop cairo_selectfont } if } bind def
/g { setgray } bind def
/rg { setrgbcolor } bind def
/d1 { setcachedevice } bind def
%%EndProlog
%%Page: 1 1
%%BeginPageSetup
%%PageBoundingBox: 0 -1 260 157
%%EndPageSetup
q 0 -1 260 158 rectclip q
0 156.875 260 -157 re W n
1 g
2.4 w
0 J
0 j
[] 0.0 d
4 M q 1 0 0 -1 0 156.87529 cm
194.344 82.523 m 194.344 95.691 173.176 106.363 147.066 106.363 c 
120.957 106.363 99.793 95.691 99.793 82.523 c 99.793 69.359 120.957 
58.684 147.066 58.684 c 173.176 58.684 194.344 69.359 194.344 82.523 c 
h
194.344 82.523 m S Q
q 1 0 0 -1 0 156.87529 cm
39.992 74.441 m 39.992 82.254 31.309 88.586 20.598 88.586 c 9.887 
88.586 1.203 82.254 1.203 74.441 c 1.203 66.633 9.887 60.301 20.598 
60.301 c 31.309 60.301 39.992 66.633 39.992 74.441 c h
39.992 74.441 m S Q
0 g
87.656 27.746 m 87.656 26.7 l 87.32 27.012 86.969 27.239 86.594 27.387 
c 86.219 27.543 85.82 27.621 85.406 27.621 c 84.57 27.621 83.93 27.364 
83.484 26.856 c 83.047 26.344 82.828 25.61 82.828 24.653 c 82.828 
23.692 83.047 22.957 83.484 22.45 c 83.93 21.938 84.57 21.684 85.406 
21.684 c 85.82 21.684 86.219 21.754 86.594 21.903 c 86.969 22.059 87.32 
22.293 87.656 22.606 c 87.656 21.575 l 87.312 21.332 86.945 21.157 
86.562 21.043 c 86.176 20.93 85.77 20.871 85.344 20.871 c 84.238 20.871 
83.367 21.207 82.734 21.887 c 82.098 22.563 81.781 23.485 81.781 24.653 
c 81.781 25.817 82.098 26.739 82.734 27.418 c 83.367 28.094 84.238 
28.434 85.344 28.434 c 85.781 28.434 86.191 28.375 86.578 28.262 c 
86.961 28.145 87.32 27.973 87.656 27.746 c h
90.992 25.856 m 90.512 25.856 90.133 25.668 89.852 25.293 c 89.57 
24.918 89.43 24.403 89.43 23.746 c 89.43 23.09 89.562 22.575 89.836 
22.2 c 90.117 21.825 90.5 21.637 90.992 21.637 c 91.469 21.637 91.852 
21.825 92.133 22.2 c 92.414 22.575 92.555 23.09 92.555 23.746 c 92.555 
24.391 92.414 24.903 92.133 25.278 c 91.852 25.66 91.469 25.856 90.992 
25.856 c h
90.992 26.606 m 91.773 26.606 92.387 26.348 92.836 25.84 c 93.281 25.34 
93.508 24.641 93.508 23.746 c 93.508 22.848 93.281 22.145 92.836 21.637 
c 92.387 21.125 91.773 20.871 90.992 20.871 c 90.211 20.871 89.594 
21.125 89.148 21.637 c 88.699 22.145 88.477 22.848 88.477 23.746 c 
88.477 24.641 88.699 25.34 89.148 25.84 c 89.594 26.348 90.211 26.606 
90.992 26.606 c h
99.285 24.309 m 99.285 21.012 l 98.395 21.012 l 98.395 24.278 l 98.395 
24.797 98.289 25.184 98.082 25.434 c 97.883 25.692 97.582 25.825 97.176 
25.825 c 96.695 25.825 96.316 25.668 96.035 25.356 c 95.754 25.051 
95.613 24.637 95.613 24.106 c 95.613 21.012 l 94.707 21.012 l 94.707 
26.481 l 95.613 26.481 l 95.613 25.637 l 95.832 25.957 96.086 26.2 
96.379 26.356 c 96.668 26.52 97.004 26.606 97.379 26.606 c 98.004 
26.606 98.477 26.41 98.801 26.028 c 99.121 25.641 99.285 25.067 99.285 
24.309 c h
103.613 28.606 m 103.613 27.856 l 102.754 27.856 l 102.43 27.856 
102.207 27.785 102.082 27.653 c 101.957 27.528 101.895 27.297 101.895 
26.965 c 101.895 26.481 l 103.363 26.481 l 103.363 25.778 l 101.895 
25.778 l 101.895 21.012 l 100.988 21.012 l 100.988 25.778 l 100.129 
25.778 l 100.129 26.481 l 100.988 26.481 l 100.988 26.856 l 100.988 
27.469 101.129 27.91 101.41 28.184 c 101.691 28.465 102.137 28.606 
102.754 28.606 c h
108.895 23.965 m 108.895 23.528 l 104.754 23.528 l 104.793 22.91 104.98 
22.442 105.316 22.121 c 105.648 21.797 106.113 21.637 106.707 21.637 c 
107.051 21.637 107.383 21.676 107.707 21.762 c 108.039 21.844 108.363 
21.969 108.676 22.137 c 108.676 21.293 l 108.352 21.157 108.02 21.051 
107.676 20.981 c 107.34 20.91 107.004 20.871 106.66 20.871 c 105.785 
20.871 105.09 21.121 104.582 21.621 c 104.07 22.129 103.816 22.825 
103.816 23.7 c 103.816 24.594 104.055 25.301 104.535 25.825 c 105.023 
26.344 105.68 26.606 106.504 26.606 c 107.242 26.606 107.824 26.371 
108.254 25.903 c 108.68 25.434 108.895 24.785 108.895 23.965 c h
107.988 24.231 m 107.988 24.719 107.852 25.11 107.582 25.403 c 107.309 
25.703 106.957 25.856 106.52 25.856 c 106.008 25.856 105.602 25.707 
105.301 25.418 c 105.008 25.137 104.836 24.739 104.785 24.231 c h
113.285 25.637 m 113.18 25.7 113.07 25.739 112.957 25.762 c 112.84 
25.793 112.711 25.809 112.566 25.809 c 112.055 25.809 111.664 25.641 
111.395 25.309 c 111.121 24.985 110.988 24.512 110.988 23.887 c 110.988 
21.012 l 110.082 21.012 l 110.082 26.481 l 110.988 26.481 l 110.988 
25.637 l 111.176 25.969 111.418 26.215 111.723 26.371 c 112.023 26.528 
112.395 26.606 112.832 26.606 c 112.895 26.606 112.961 26.598 113.035 
26.59 c 113.105 26.59 113.191 26.578 113.285 26.559 c h
118.551 23.965 m 118.551 23.528 l 114.41 23.528 l 114.449 22.91 114.637 
22.442 114.973 22.121 c 115.305 21.797 115.77 21.637 116.363 21.637 c 
116.707 21.637 117.039 21.676 117.363 21.762 c 117.695 21.844 118.02 
21.969 118.332 22.137 c 118.332 21.293 l 118.008 21.157 117.676 21.051 
117.332 20.981 c 116.996 20.91 116.66 20.871 116.316 20.871 c 115.441 
20.871 114.746 21.121 114.238 21.621 c 113.727 22.129 113.473 22.825 
113.473 23.7 c 113.473 24.594 113.711 25.301 114.191 25.825 c 114.68 
26.344 115.336 26.606 116.16 26.606 c 116.898 26.606 117.48 26.371 
117.91 25.903 c 118.336 25.434 118.551 24.785 118.551 23.965 c h
117.645 24.231 m 117.645 24.719 117.508 25.11 117.238 25.403 c 116.965 
25.703 116.613 25.856 116.176 25.856 c 115.664 25.856 115.258 25.707 
114.957 25.418 c 114.664 25.137 114.492 24.739 114.441 24.231 c h
124.316 24.309 m 124.316 21.012 l 123.426 21.012 l 123.426 24.278 l 
123.426 24.797 123.32 25.184 123.113 25.434 c 122.914 25.692 122.613 
25.825 122.207 25.825 c 121.727 25.825 121.348 25.668 121.066 25.356 c 
120.785 25.051 120.645 24.637 120.645 24.106 c 120.645 21.012 l 119.738 
21.012 l 119.738 26.481 l 120.645 26.481 l 120.645 25.637 l 120.863 
25.957 121.117 26.2 121.41 26.356 c 121.699 26.52 122.035 26.606 122.41 
26.606 c 123.035 26.606 123.508 26.41 123.832 26.028 c 124.152 25.641 
124.316 25.067 124.316 24.309 c h
129.801 26.278 m 129.801 25.434 l 129.551 25.567 129.293 25.672 129.035 
25.746 c 128.785 25.817 128.527 25.856 128.27 25.856 c 127.684 25.856 
127.23 25.668 126.91 25.293 c 126.586 24.926 126.426 24.41 126.426 
23.746 c 126.426 23.078 126.586 22.559 126.91 22.184 c 127.23 21.817 
127.684 21.637 128.27 21.637 c 128.527 21.637 128.785 21.668 129.035 
21.731 c 129.293 21.801 129.551 21.91 129.801 22.059 c 129.801 21.215 l 
129.551 21.098 129.289 21.016 129.02 20.965 c 128.758 20.903 128.477 
20.871 128.176 20.871 c 127.34 20.871 126.68 21.125 126.191 21.637 c 
125.711 22.157 125.473 22.86 125.473 23.746 c 125.473 24.629 125.715 
25.328 126.207 25.84 c 126.695 26.348 127.367 26.606 128.223 26.606 c 
128.504 26.606 128.773 26.578 129.035 26.528 c 129.293 26.473 129.551 
26.391 129.801 26.278 c h
135.836 23.965 m 135.836 23.528 l 131.695 23.528 l 131.734 22.91 
131.922 22.442 132.258 22.121 c 132.59 21.797 133.055 21.637 133.648 
21.637 c 133.992 21.637 134.324 21.676 134.648 21.762 c 134.98 21.844 
135.305 21.969 135.617 22.137 c 135.617 21.293 l 135.293 21.157 134.961 
21.051 134.617 20.981 c 134.281 20.91 133.945 20.871 133.602 20.871 c 
132.727 20.871 132.031 21.121 131.523 21.621 c 131.012 22.129 130.758 
22.825 130.758 23.7 c 130.758 24.594 130.996 25.301 131.477 25.825 c 
131.965 26.344 132.621 26.606 133.445 26.606 c 134.184 26.606 134.766 
26.371 135.195 25.903 c 135.621 25.434 135.836 24.785 135.836 23.965 c 
h
134.93 24.231 m 134.93 24.719 134.793 25.11 134.523 25.403 c 134.25 
25.703 133.898 25.856 133.461 25.856 c 132.949 25.856 132.543 25.707 
132.242 25.418 c 131.949 25.137 131.777 24.739 131.727 24.231 c h
134.93 24.231 m f
99.438 12.434 m 99.645 12.36 99.848 12.203 100.047 11.965 c 100.254 
11.735 100.457 11.418 100.656 11.012 c 101.656 9.012 l 100.594 9.012 l 
99.672 10.887 l 99.43 11.375 99.195 11.7 98.969 11.856 c 98.738 12.012 
98.43 12.09 98.047 12.09 c 96.969 12.09 l 96.969 9.012 l 95.984 9.012 l 
95.984 16.309 l 98.203 16.309 l 99.035 16.309 99.656 16.129 100.062 
15.778 c 100.477 15.434 100.688 14.907 100.688 14.2 c 100.688 13.739 
100.578 13.36 100.359 13.059 c 100.148 12.754 99.844 12.547 99.438 
12.434 c h
96.969 15.496 m 96.969 12.903 l 98.203 12.903 l 98.68 12.903 99.039 
13.012 99.281 13.231 c 99.531 13.45 99.656 13.77 99.656 14.2 c 99.656 
14.625 99.531 14.95 99.281 15.168 c 99.039 15.387 98.68 15.496 98.203 
15.496 c h
104.305 13.856 m 103.824 13.856 103.445 13.668 103.164 13.293 c 102.883 
12.918 102.742 12.403 102.742 11.746 c 102.742 11.09 102.875 10.575 
103.148 10.2 c 103.43 9.825 103.812 9.637 104.305 9.637 c 104.781 9.637 
105.164 9.825 105.445 10.2 c 105.727 10.575 105.867 11.09 105.867 
11.746 c 105.867 12.391 105.727 12.903 105.445 13.278 c 105.164 13.66 
104.781 13.856 104.305 13.856 c h
104.305 14.606 m 105.086 14.606 105.699 14.348 106.148 13.84 c 106.594 
13.34 106.82 12.641 106.82 11.746 c 106.82 10.848 106.594 10.145 
106.148 9.637 c 105.699 9.125 105.086 8.871 104.305 8.871 c 103.523 
8.871 102.906 9.125 102.461 9.637 c 102.012 10.145 101.789 10.848 
101.789 11.746 c 101.789 12.641 102.012 13.34 102.461 13.84 c 102.906 
14.348 103.523 14.606 104.305 14.606 c h
110.176 13.856 m 109.695 13.856 109.316 13.668 109.035 13.293 c 108.754 
12.918 108.613 12.403 108.613 11.746 c 108.613 11.09 108.746 10.575 
109.02 10.2 c 109.301 9.825 109.684 9.637 110.176 9.637 c 110.652 9.637 
111.035 9.825 111.316 10.2 c 111.598 10.575 111.738 11.09 111.738 
11.746 c 111.738 12.391 111.598 12.903 111.316 13.278 c 111.035 13.66 
110.652 13.856 110.176 13.856 c h
110.176 14.606 m 110.957 14.606 111.57 14.348 112.02 13.84 c 112.465 
13.34 112.691 12.641 112.691 11.746 c 112.691 10.848 112.465 10.145 
112.02 9.637 c 111.57 9.125 110.957 8.871 110.176 8.871 c 109.395 8.871 
108.777 9.125 108.332 9.637 c 107.883 10.145 107.66 10.848 107.66 
11.746 c 107.66 12.641 107.883 13.34 108.332 13.84 c 108.777 14.348 
109.395 14.606 110.176 14.606 c h
118.184 13.434 m 118.402 13.84 118.668 14.137 118.98 14.325 c 119.293 
14.512 119.66 14.606 120.09 14.606 c 120.66 14.606 121.098 14.407 
121.402 14.012 c 121.715 13.614 121.871 13.047 121.871 12.309 c 121.871 
9.012 l 120.965 9.012 l 120.965 12.278 l 120.965 12.809 120.871 13.2 
120.684 13.45 c 120.504 13.7 120.223 13.825 119.84 13.825 c 119.371 
13.825 119 13.668 118.73 13.356 c 118.469 13.051 118.34 12.637 118.34 
12.106 c 118.34 9.012 l 117.434 9.012 l 117.434 12.278 l 117.434 12.809 
117.34 13.2 117.152 13.45 c 116.965 13.7 116.676 13.825 116.293 13.825 
c 115.832 13.825 115.469 13.668 115.199 13.356 c 114.926 13.051 114.793 
12.637 114.793 12.106 c 114.793 9.012 l 113.887 9.012 l 113.887 14.481 
l 114.793 14.481 l 114.793 13.637 l 115 13.969 115.246 14.215 115.527 
14.371 c 115.816 14.528 116.156 14.606 116.543 14.606 c 116.949 14.606 
117.285 14.504 117.559 14.309 c 117.84 14.11 118.047 13.817 118.184 
13.434 c h
118.184 13.434 m f
0.360787 w
q 0.974175 0 0 -1 0 156.87529 cm
147.461 138.285 m 147.461 148.449 131.389 156.691 111.565 156.691 c 
91.736 156.691 75.665 148.449 75.665 138.285 c 75.665 128.121 91.736 
119.879 111.565 119.879 c 131.389 119.879 147.461 128.121 147.461 
138.285 c h
147.461 138.285 m S Q
106.312 140.016 m 107.297 140.016 l 107.297 133.547 l 110.844 133.547 l 
110.844 132.719 l 106.312 132.719 l h
114.094 135.469 m 113.375 135.469 112.875 135.383 112.594 135.219 c 
112.312 135.051 112.172 134.77 112.172 134.375 c 112.172 134.051 
112.273 133.797 112.484 133.61 c 112.691 133.422 112.977 133.328 
113.344 133.328 c 113.844 133.328 114.242 133.504 114.547 133.86 c 
114.848 134.211 115 134.68 115 135.266 c 115 135.469 l h
115.891 135.844 m 115.891 132.719 l 115 132.719 l 115 133.547 l 114.789 
133.211 114.531 132.969 114.219 132.813 c 113.914 132.657 113.547 
132.578 113.109 132.578 c 112.547 132.578 112.098 132.735 111.766 
133.047 c 111.43 133.36 111.266 133.782 111.266 134.313 c 111.266 
134.926 111.473 135.391 111.891 135.703 c 112.305 136.016 112.922 
136.172 113.734 136.172 c 115 136.172 l 115 136.266 l 115 136.672 
114.859 136.989 114.578 137.219 c 114.305 137.446 113.926 137.563 
113.438 137.563 c 113.125 137.563 112.816 137.52 112.516 137.438 c 
112.223 137.364 111.941 137.254 111.672 137.11 c 111.672 137.938 l 
112.004 138.063 112.32 138.157 112.625 138.219 c 112.938 138.282 
113.238 138.313 113.531 138.313 c 114.32 138.313 114.91 138.11 115.297 
137.703 c 115.691 137.297 115.891 136.676 115.891 135.844 c h
121.438 135.453 m 121.438 136.11 121.297 136.625 121.016 137 c 120.742 
137.375 120.375 137.563 119.906 137.563 c 119.426 137.563 119.051 
137.375 118.781 137 c 118.508 136.625 118.375 136.11 118.375 135.453 c 
118.375 134.785 118.508 134.266 118.781 133.891 c 119.051 133.516 
119.426 133.328 119.906 133.328 c 120.375 133.328 120.742 133.516 
121.016 133.891 c 121.297 134.266 121.438 134.785 121.438 135.453 c h
118.375 137.36 m 118.562 137.68 118.797 137.922 119.078 138.078 c 
119.367 138.235 119.719 138.313 120.125 138.313 c 120.789 138.313 
121.328 138.047 121.734 137.516 c 122.148 136.992 122.359 136.305 
122.359 135.453 c 122.359 134.586 122.148 133.891 121.734 133.36 c 
121.328 132.836 120.789 132.578 120.125 132.578 c 119.719 132.578 
119.367 132.657 119.078 132.813 c 118.797 132.969 118.562 133.211 
118.375 133.547 c 118.375 132.719 l 117.469 132.719 l 117.469 140.313 l 
118.375 140.313 l h
118.375 137.36 m f
q 0.974175 0 0 -1 0 156.87529 cm
153.126 20.578 m 153.126 30.742 137.055 38.984 117.227 38.984 c 97.402 
38.984 81.331 30.742 81.331 20.578 c 81.331 10.414 97.402 2.172 117.227 
2.172 c 137.055 2.172 153.126 10.414 153.126 20.578 c h
153.126 20.578 m S Q
214.27 141.34 m 213.551 141.34 212.98 141.067 212.566 140.528 c 212.148 
139.996 211.941 139.27 211.941 138.356 c 211.941 137.438 212.148 
136.707 212.566 136.168 c 212.98 135.637 213.551 135.371 214.27 135.371 
c 214.988 135.371 215.555 135.637 215.973 136.168 c 216.387 136.707 
216.598 137.438 216.598 138.356 c 216.598 139.27 216.387 139.996 
215.973 140.528 c 215.555 141.067 214.988 141.34 214.27 141.34 c h
214.27 142.137 m 215.289 142.137 216.105 141.793 216.723 141.106 c 
217.336 140.418 217.645 139.5 217.645 138.356 c 217.645 137.207 217.336 
136.293 216.723 135.606 c 216.105 134.918 215.289 134.575 214.27 
134.575 c 213.246 134.575 212.43 134.91 211.816 135.59 c 211.199 
136.278 210.895 137.2 210.895 138.356 c 210.895 139.5 211.199 140.418 
211.816 141.106 c 212.43 141.793 213.246 142.137 214.27 142.137 c h
221.605 142.309 m 221.605 141.559 l 220.746 141.559 l 220.422 141.559 
220.199 141.489 220.074 141.356 c 219.949 141.231 219.887 141 219.887 
140.668 c 219.887 140.184 l 221.355 140.184 l 221.355 139.481 l 219.887 
139.481 l 219.887 134.715 l 218.98 134.715 l 218.98 139.481 l 218.121 
139.481 l 218.121 140.184 l 218.98 140.184 l 218.98 140.559 l 218.98 
141.172 219.121 141.614 219.402 141.887 c 219.684 142.168 220.129 
142.309 220.746 142.309 c h
224.98 142.309 m 224.98 141.559 l 224.121 141.559 l 223.797 141.559 
223.574 141.489 223.449 141.356 c 223.324 141.231 223.262 141 223.262 
140.668 c 223.262 140.184 l 224.73 140.184 l 224.73 139.481 l 223.262 
139.481 l 223.262 134.715 l 222.355 134.715 l 222.355 139.481 l 221.496 
139.481 l 221.496 140.184 l 222.355 140.184 l 222.355 140.559 l 222.355 
141.172 222.496 141.614 222.777 141.887 c 223.059 142.168 223.504 
142.309 224.121 142.309 c h
225.574 140.184 m 226.48 140.184 l 226.48 134.715 l 225.574 134.715 l h
225.574 142.309 m 226.48 142.309 l 226.48 141.168 l 225.574 141.168 l h
232.176 139.981 m 232.176 139.137 l 231.926 139.27 231.668 139.375 
231.41 139.45 c 231.16 139.52 230.902 139.559 230.645 139.559 c 230.059 
139.559 229.605 139.371 229.285 138.996 c 228.961 138.629 228.801 
138.114 228.801 137.45 c 228.801 136.782 228.961 136.262 229.285 
135.887 c 229.605 135.52 230.059 135.34 230.645 135.34 c 230.902 135.34 
231.16 135.371 231.41 135.434 c 231.668 135.504 231.926 135.614 232.176 
135.762 c 232.176 134.918 l 231.926 134.801 231.664 134.719 231.395 
134.668 c 231.133 134.606 230.852 134.575 230.551 134.575 c 229.715 
134.575 229.055 134.828 228.566 135.34 c 228.086 135.86 227.848 136.563 
227.848 137.45 c 227.848 138.332 228.09 139.032 228.582 139.543 c 
229.07 140.051 229.742 140.309 230.598 140.309 c 230.879 140.309 
231.148 140.282 231.41 140.231 c 231.668 140.176 231.926 140.094 
232.176 139.981 c h
238.211 137.668 m 238.211 137.231 l 234.07 137.231 l 234.109 136.614 
234.297 136.145 234.633 135.825 c 234.965 135.5 235.43 135.34 236.023 
135.34 c 236.367 135.34 236.699 135.379 237.023 135.465 c 237.355 
135.547 237.68 135.672 237.992 135.84 c 237.992 134.996 l 237.668 
134.86 237.336 134.754 236.992 134.684 c 236.656 134.614 236.32 134.575 
235.977 134.575 c 235.102 134.575 234.406 134.825 233.898 135.325 c 
233.387 135.832 233.133 136.528 233.133 137.403 c 233.133 138.297 
233.371 139.004 233.852 139.528 c 234.34 140.047 234.996 140.309 235.82 
140.309 c 236.559 140.309 237.141 140.075 237.57 139.606 c 237.996 
139.137 238.211 138.489 238.211 137.668 c h
237.305 137.934 m 237.305 138.422 237.168 138.813 236.898 139.106 c 
236.625 139.407 236.273 139.559 235.836 139.559 c 235.324 139.559 
234.918 139.41 234.617 139.121 c 234.324 138.84 234.152 138.442 234.102 
137.934 c h
237.305 137.934 m f
q 0.974175 0 0 -1 0 156.87529 cm
266.275 18.582 m 266.275 28.746 250.204 36.988 230.375 36.988 c 210.551 
36.988 194.479 28.746 194.479 18.582 c 194.479 8.418 210.551 0.176 
230.375 0.176 c 250.204 0.176 266.275 8.418 266.275 18.582 c h
266.275 18.582 m S Q
119.688 82.332 m 120.672 82.332 l 120.672 79.332 l 124.25 79.332 l 
124.25 82.332 l 125.234 82.332 l 125.234 75.035 l 124.25 75.035 l 
124.25 78.504 l 120.672 78.504 l 120.672 75.035 l 119.688 75.035 l h
129.344 77.785 m 128.625 77.785 128.125 77.7 127.844 77.535 c 127.562 
77.367 127.422 77.086 127.422 76.692 c 127.422 76.367 127.523 76.114 
127.734 75.926 c 127.941 75.739 128.227 75.645 128.594 75.645 c 129.094 
75.645 129.492 75.821 129.797 76.176 c 130.098 76.528 130.25 76.996 
130.25 77.582 c 130.25 77.785 l h
131.141 78.16 m 131.141 75.035 l 130.25 75.035 l 130.25 75.864 l 
130.039 75.528 129.781 75.285 129.469 75.129 c 129.164 74.973 128.797 
74.895 128.359 74.895 c 127.797 74.895 127.348 75.051 127.016 75.364 c 
126.68 75.676 126.516 76.098 126.516 76.629 c 126.516 77.242 126.723 
77.707 127.141 78.02 c 127.555 78.332 128.172 78.489 128.984 78.489 c 
130.25 78.489 l 130.25 78.582 l 130.25 78.989 130.109 79.305 129.828 
79.535 c 129.555 79.762 129.176 79.879 128.688 79.879 c 128.375 79.879 
128.066 79.836 127.766 79.754 c 127.473 79.68 127.191 79.571 126.922 
79.426 c 126.922 80.254 l 127.254 80.379 127.57 80.473 127.875 80.535 c 
128.188 80.598 128.488 80.629 128.781 80.629 c 129.57 80.629 130.16 
80.426 130.547 80.02 c 130.941 79.614 131.141 78.992 131.141 78.16 c h
132.746 82.629 m 133.652 82.629 l 133.652 75.035 l 132.746 75.035 l h
135.406 82.629 m 136.312 82.629 l 136.312 75.035 l 135.406 75.035 l h
137.555 80.504 m 138.445 80.504 l 139.57 76.239 l 140.695 80.504 l 
141.758 80.504 l 142.883 76.239 l 143.992 80.504 l 144.898 80.504 l 
143.461 75.035 l 142.398 75.035 l 141.227 79.52 l 140.039 75.035 l 
138.977 75.035 l h
148.41 77.785 m 147.691 77.785 147.191 77.7 146.91 77.535 c 146.629 
77.367 146.488 77.086 146.488 76.692 c 146.488 76.367 146.59 76.114 
146.801 75.926 c 147.008 75.739 147.293 75.645 147.66 75.645 c 148.16 
75.645 148.559 75.821 148.863 76.176 c 149.164 76.528 149.316 76.996 
149.316 77.582 c 149.316 77.785 l h
150.207 78.16 m 150.207 75.035 l 149.316 75.035 l 149.316 75.864 l 
149.105 75.528 148.848 75.285 148.535 75.129 c 148.23 74.973 147.863 
74.895 147.426 74.895 c 146.863 74.895 146.414 75.051 146.082 75.364 c 
145.746 75.676 145.582 76.098 145.582 76.629 c 145.582 77.242 145.789 
77.707 146.207 78.02 c 146.621 78.332 147.238 78.489 148.051 78.489 c 
149.316 78.489 l 149.316 78.582 l 149.316 78.989 149.176 79.305 148.895 
79.535 c 148.621 79.762 148.242 79.879 147.754 79.879 c 147.441 79.879 
147.133 79.836 146.832 79.754 c 146.539 79.68 146.258 79.571 145.988 
79.426 c 145.988 80.254 l 146.32 80.379 146.637 80.473 146.941 80.535 c 
147.254 80.598 147.555 80.629 147.848 80.629 c 148.637 80.629 149.227 
80.426 149.613 80.02 c 150.008 79.614 150.207 78.992 150.207 78.16 c h
154.094 74.52 m 153.844 73.875 153.594 73.453 153.344 73.254 c 153.102 
73.059 152.785 72.957 152.391 72.957 c 151.672 72.957 l 151.672 73.707 
l 152.188 73.707 l 152.438 73.707 152.629 73.766 152.766 73.879 c 
152.898 73.996 153.051 74.27 153.219 74.707 c 153.391 75.129 l 151.172 
80.504 l 152.125 80.504 l 153.828 76.223 l 155.547 80.504 l 156.5 
80.504 l h
154.094 74.52 m f
q 0.974175 0 0 -1 0 156.87529 cm
177.514 79.191 m 177.514 89.355 161.443 97.598 141.614 97.598 c 121.79 
97.598 105.718 89.355 105.718 79.191 c 105.718 69.027 121.79 60.785 
141.614 60.785 c 161.443 60.785 177.514 69.027 177.514 79.191 c h
177.514 79.191 m S Q
25.469 80.192 m 26.453 80.192 l 26.453 77.098 l 29.719 80.192 l 31 
80.192 l 27.375 76.785 l 31.25 72.895 l 29.953 72.895 l 26.453 76.41 l 
26.453 72.895 l 25.469 72.895 l h
31.723 78.364 m 32.629 78.364 l 32.629 72.895 l 31.723 72.895 l h
31.723 80.489 m 32.629 80.489 l 32.629 79.348 l 31.723 79.348 l h
35.273 79.91 m 35.273 78.364 l 37.133 78.364 l 37.133 77.66 l 35.273 
77.66 l 35.273 74.692 l 35.273 74.254 35.336 73.965 35.461 73.832 c 
35.586 73.707 35.836 73.645 36.211 73.645 c 37.133 73.645 l 37.133 
72.895 l 36.211 72.895 l 35.512 72.895 35.027 73.024 34.758 73.285 c 
34.496 73.543 34.367 74.012 34.367 74.692 c 34.367 77.66 l 33.711 77.66 
l 33.711 78.364 l 34.367 78.364 l 34.367 79.91 l h
42.09 78.16 m 42.09 77.317 l 41.84 77.45 41.582 77.555 41.324 77.629 c 
41.074 77.7 40.816 77.739 40.559 77.739 c 39.973 77.739 39.52 77.551 
39.199 77.176 c 38.875 76.809 38.715 76.293 38.715 75.629 c 38.715 
74.961 38.875 74.442 39.199 74.067 c 39.52 73.7 39.973 73.52 40.559 
73.52 c 40.816 73.52 41.074 73.551 41.324 73.614 c 41.582 73.684 41.84 
73.793 42.09 73.942 c 42.09 73.098 l 41.84 72.981 41.578 72.899 41.309 
72.848 c 41.047 72.785 40.766 72.754 40.465 72.754 c 39.629 72.754 
38.969 73.008 38.48 73.52 c 38 74.039 37.762 74.742 37.762 75.629 c 
37.762 76.512 38.004 77.211 38.496 77.723 c 38.984 78.231 39.656 78.489 
40.512 78.489 c 40.793 78.489 41.062 78.461 41.324 78.41 c 41.582 
78.356 41.84 78.274 42.09 78.16 c h
47.988 76.192 m 47.988 72.895 l 47.098 72.895 l 47.098 76.16 l 47.098 
76.68 46.992 77.067 46.785 77.317 c 46.586 77.575 46.285 77.707 45.879 
77.707 c 45.398 77.707 45.02 77.551 44.738 77.239 c 44.457 76.934 
44.316 76.52 44.316 75.989 c 44.316 72.895 l 43.41 72.895 l 43.41 
80.489 l 44.316 80.489 l 44.316 77.52 l 44.535 77.84 44.789 78.082 
45.082 78.239 c 45.371 78.403 45.707 78.489 46.082 78.489 c 46.707 
78.489 47.18 78.293 47.504 77.91 c 47.824 77.524 47.988 76.95 47.988 
76.192 c h
54.223 75.848 m 54.223 75.41 l 50.082 75.41 l 50.121 74.793 50.309 
74.325 50.645 74.004 c 50.977 73.68 51.441 73.52 52.035 73.52 c 52.379 
73.52 52.711 73.559 53.035 73.645 c 53.367 73.727 53.691 73.852 54.004 
74.02 c 54.004 73.176 l 53.68 73.039 53.348 72.934 53.004 72.864 c 
52.668 72.793 52.332 72.754 51.988 72.754 c 51.113 72.754 50.418 73.004 
49.91 73.504 c 49.398 74.012 49.145 74.707 49.145 75.582 c 49.145 
76.477 49.383 77.184 49.863 77.707 c 50.352 78.227 51.008 78.489 51.832 
78.489 c 52.57 78.489 53.152 78.254 53.582 77.785 c 54.008 77.317 
54.223 76.668 54.223 75.848 c h
53.316 76.114 m 53.316 76.602 53.18 76.992 52.91 77.285 c 52.637 77.586 
52.285 77.739 51.848 77.739 c 51.336 77.739 50.93 77.59 50.629 77.301 c 
50.336 77.02 50.164 76.621 50.113 76.114 c h
59.988 76.192 m 59.988 72.895 l 59.098 72.895 l 59.098 76.16 l 59.098 
76.68 58.992 77.067 58.785 77.317 c 58.586 77.575 58.285 77.707 57.879 
77.707 c 57.398 77.707 57.02 77.551 56.738 77.239 c 56.457 76.934 
56.316 76.52 56.316 75.989 c 56.316 72.895 l 55.41 72.895 l 55.41 
78.364 l 56.316 78.364 l 56.316 77.52 l 56.535 77.84 56.789 78.082 
57.082 78.239 c 57.371 78.403 57.707 78.489 58.082 78.489 c 58.707 
78.489 59.18 78.293 59.504 77.91 c 59.824 77.524 59.988 76.95 59.988 
76.192 c h
59.988 76.192 m f
q 0.974175 0 0 -1 0 156.87529 cm
79.627 80.402 m 79.627 90.566 63.555 98.809 43.727 98.809 c 23.902 
98.809 7.831 90.566 7.831 80.402 c 7.831 70.238 23.902 62 43.727 62 c 
63.555 62 79.627 70.238 79.627 80.402 c h
79.627 80.402 m S Q
0.8 w
q 1 0 0 -1 0 156.87529 cm
189.477 19.215 m 149.152 19.945 l S Q
q 1 0 0 -1 0 156.87529 cm
121.496 38.582 m 130.66 61.188 l S Q
q 1 0 0 -1 0 156.87529 cm
102.996 79.637 m 77.562 79.957 l S Q
q 1 0 0 -1 0 156.87529 cm
117.508 120.473 m 129.133 97.004 l S Q
Q Q
showpage
%%Trailer
count op_count sub {pop} repeat
countdictstack dict_count sub {end} repeat
cairo_eps_state restore
%%EOF
